** LAST MODIFICATION: 17/10/86 (CB): CONDITION ON VKGEN7.                       
                   -PROC-                                                       
PCP: UL0 == UL-E-'UL0'.                                                         
PCP: NP == K-E-NP.                                                              
PCP: AP == K-E-AP.                                                              
PCP: ADVP == K-E-ADVP.                                                          
PCP: DES == SF-E-DES.                                                           
PCP: CIRC == SF-E-CIRC.                                                         
PCP: COMP == SF-E-COMP.                                                         
PCP: VCL == K-E-VCL.                                                            
PCP: RELCL == K-E-RELCL.                                                        
PCP: PARTCL == K-E-PARTCL.                                                      
PCP: SCL == K-E-SCL.                                                            
PCP: ARG0 == RL-E-ARG0.                                                         
PCP: GOV == SF-E-GOV.                                                           
PCP: ARG12 == RL-E-ARG1 -OU- RL-E-ARG2.                                         
PCP: SUBJ == SF-E-SUBJ.                                                         
PCP: OBJ1 == SF-E-OBJ1.                                                         
PCP: OBJ2 == SF-E-OBJ2.                                                         
PCP: ARG1 == RL-E-ARG1.                                                         
PCP: ARG2 == RL-E-ARG2.                                                         
PCP: ANP == K-E-AP -OU- K-E-NP.                                                 
PCP: CIRCL == K-E-SCL -ET- SF-E-CIRC.                                           
PCP: VK == K-E-VK.                                                              
PCP: ADJ == TSUBA-E-ADJ.                                                        
PCP: NSUBS == TSUBS-E-TSUBS0.                                                   
                                                                                
** THAI DERIVATIONS.                                                            
                                                                                
PCP: AN == TDRV-E-AN.                                                           
PCP: AM == TDRV-E-AM.                                                           
PCP: VA1 == TDRV-E-VA1.                                                         
PCP: VA2 == TDRV-E-VA2.                                                         
PCP: VA3 == TDRV-E-VA3.                                                         
PCP: VAM1 == TDRV-E-VAM1.                                                       
PCP: VAM2 == TDRV-E-VAM2.                                                       
PCP: VAM3 == TDRV-E-VAM3.                                                       
PCP: VN1 == TDRV-E-VN1.                                                         
PCP: VN2 == TDRV-E-VN2.                                                         
PCP: VNAG == TDRV-E-VNAG.                                                       
PCP: VNI == TDRV-E-VNI.                                                         
                                                                                
                                                                                
** ARGUMENTS WITH FREE SF .                                                     
PCP: FARG0 == RL-E-ARG0 -ET- SFLOCK-NE-1.                                       
PCP: FARG1 == RL-E-ARG1 -ET- SFLOCK-NE-1.                                       
PCP: FARG2 == RL-E-ARG2 -ET- SFLOCK-NE-1.                                       
PCP: FTRL0 == RL-E-TRL0 -ET- SFLOCK-NE-1.                                       
PCP: FARG12 == (- RL-E-ARG1 -OU- RL-E-ARG2 -) -ET- SFLOCK-NE-1.                 
PCP: FCIRC == SF-E-CIRC -ET- SFLOCK-NE-1.                                       
                                                                                
** FREE K WITH LOCKED SF.                                                       
PCP: FK == SFLOCK-E-1 -ET- KLOCK-NE-1.                                          
                                                                                
** LOCKED CLAUSES .                                                             
PCP: LATSUBJ == SF-E-ATSUBJ -ET- SFLOCK-E-1.                                    
PCP: LCL == (-  K-E-VCL -OU- K-E-SCL-OU-K-E-RELCL-OU-K-E-PARTCL-)               
               -ET- KLOCK-E-1.                                                  
PCP: LBECL==(- K-E-VCL -OU- K-E-SCL -OU- K-E-RELCL -OU- K-E-PARTCL-)            
            -ET- KLOCK-E-1 -ET- BECL-NE-BECL0 .                                 
PCP: LNBECL==(- K-E-VCL -OU- K-E-SCL -OU- K-E-RELCL -OU- K-E-PARTCL-)           
            -ET- KLOCK-E-1 -ET- BECL-E-BECL0 .                                  
PCP: LOBJ == (-SF-E-OBJ1-OU- SF-E-OBJ2-) -ET- SFLOCK -E- 1.                     
PCP: LOBJ1 == SF-E-OBJ1 -ET- SFLOCK-E-1.                                        
PCP: LOBJ2 == SF-E-OBJ2 -ET- SFLOCK-E-1.                                        
PCP: LRELCL == K-E-RELCL -ET- KLOCK-E-1.                                        
PCP: LPARTCL == K-E-PARTCL -ET- KLOCK-E-1.                                      
PCP: LCIRC == SF-E-CIRC -ET- SFLOCK-E-1.                                        
                                                                                
PCP: LSCL == K-E-SCL -ET- KLOCK-E-1.                                            
PCP: LSUBJ == SF-E-SUBJ -ET- SFLOCK-E-1.                                        
PCP: LVCL == K-E-VCL -ET- KLOCK-E-1.                                            
PCP: LNP == K-E-NP -ET- KLOCK-E-1.                                              
PCP: LAP == K-E-AP -ET- KLOCK-E-1.                                              
PCP: FQUAL == RS-E-QUAL -ET- SFLOCK-NE-1 -ET- (-K-E-AP -OU- K-E-ADVP-).         
PCP: FARG == (-RL-E-ARG0 -OU- RL-E-ARG1 -OU- RL-E-ARG2-)-ET-SFLOCK-NE-1.        
PCP: LQFIER == RS-E-QFIER -ET- (-KLOCK-E-1 -OU- CATLOCK-E-1-).                  
PCP: FQFIER == RS-E-QFIER -ET- (-KLOCK-NE-1 -OU- CATLOCK-NE-1-).                
PCP: FDEM == TSUBD-E-DEM -ET- CATLOCK-NE-1.                                     
PCP: FJUXT == SF-E-JUXT -ET- SFLOCK-NE-1.                                       
PCP: FORD == TSUBA-E-ORD -ET- CATLOCK-NE-1.                                     
                                                                                
PCP: FMB4 == TYPE-E-MODAL -ET- POSIT-E-B4 -ET- SFLOCK -NE- 1.                   
PCP: FMAFT == TYPE-E-MODAL -ET- POSIT-E-AFTER -ET- SFLOCK-NE-1.                 
PCP: FADVB4 == TSUBA -E- ADV -ET- POSIT -E- B4 -ET- SFLOCK -NE- 1.              
PCP: FADVP == K-E-ADVP -ET- SFLOCK -NE- 1.                                      
PCP: ACHB4 == TASP-E-ACH -ET- POSIT-E-B4.                                       
PCP: ACHAFT == TASP-E-ACH -ET- POSIT-E-AFTER.                                   
PCP: GOING == TASP-E-GOING -ET- POSIT-E-B4.                                     
PCP: PROG == TASP-E-PROG -ET- POSIT-E-B4.                                       
                                                                                
                                                                                
                   -PRCA-                                                       
                                                                                
                   -PSCHEM-                                                     
                                                                                
                   -GRAM-                                                       
                                                                                
INIT(T):           ** INITIAL LOCK OF VCL, CIRC, AND COMP.                      
         INITLOCK;                                                              
                  <-- SFCL1.                                                    
                                                                                
** MODIFIED MAY 17, 1985.                                                       
                                                                                
SFCL1(E T):** ASSIGNMENT OF SYNTACTIC FUNCTIONS TO ARGS FOR VCL AND CIRC.       
         ACLSF1,   ** ARG0, ARG1, ARG2.                                         
         ACLSF2A,  ** ARG0, ARG1.                                               
         ACLSF2B,  ** ARG0, ARG2.                                               
         ACLSF3A,  ** ARG0, BECL, EQ - JUNE 10,86.                              
         ACLSF3B,  ** ARG0, BECL, PROP - JUNE 10,86.                            
         ACLSF4,   ** ARG1,ARG2.                                                
         ACLSF6,   ** ARG0.                                                     
         ACLSF7;   ** ARG1, NO ARG2.                                            
                                                                                
                  <-- KSO1.                                                     
                                                                                
                                                                                
KSO1(T):           ** CLASS ASSIGNMENT FOR SUBJ AND OBJ.                        
       KSUBJ,    ** CLASS ASSIGNMENT FOR SUBJ.                                  
       KOBJ;     ** CLASS ASSIGNMENT FOR OBJ.                                   
                 <-- KSO2.                                                      
                                                                                
KSO2(T):                                                                        
       NPOBJ;    ** NP AS OBJ (DEFAULT VALUE) - MAY 18, 1985.                   
                <-- SMARGL.                                                     
                                                                                
SMARGL(T):       ** LOCK SMARG - JUNE 17,86.                                    
       LSMARG;                                                                  
                <-- PREDNP.                                                     
                                                                                
                   ** NP CREATION (MARCH 28,1985).                              
** FIRST MODULE, DEALING WITH DISTRIBUTION OF ARGS IN A NP WHOSE GOVERNOR       
   IS PREDICATIVE.                                                              
                                                                                
PREDNP(T):                                                                      
         ** NPARG0 (TO BE CREATED LATER FOR 3 ARGS).                            
         NPARG1, ** ARGUMENT 1 OR 2 AND ARG0 WITH TVL1 OF THE GOV               
                    NOT INCLUDING N.                                            
         NPARG2, ** ARGUMENT 1 OR 2 AND ARG0 WITH TVL1 OF THE GOV               
                    NOT INCLUDING N.                                            
         NPARG3; ** ONLY ONE ARG.                                               
                <-- ELEMNP.                                                     
                                                                                
** SECOND MODULE, DEALING WITH ELEMENTARY NPS (JUXT).                           
ELEMNP(T):                                                                      
         NNN,    ** JUXTAPOSITION OF 3 NS.                                      
         NN;     ** JUXTAPOSITION OF 2 NS.                                      
                <-- SIMPNP.                                                     
                                                                                
** THIRD MODULE, DEALING WITH QUAL AND QFIER.                                   
                                                                                
SIMPNP(T):                                                                      
         NPAP(SIMPNP/*/0(2)),                                                   
         NPAPL(SIMPNP/*/0(2)),                                                  
         NPQTF1(SIMPNP/NPDESP/0(2)),                                            
         NPQTF2(SIMPNP/NPDESP/0(2)),                                            
         NPDESP(SIMPNP/*/0(2));                                                 
                                                                                
                 <-- CLASS.                                                     
** INSERTION OF CLASSIFIER FOR NP:                                              
   'KHON' FOR HUMAN,                                                            
   'TUA'  FOR OTHER ANIMATE,                                                    
   'AN'   FOR THE REST.                                                         
** POST-EDITOR MUST SELECT THE RIGHT CLAASIFIER FOR EACH CASE                   
   BECAUSE IT IS IMPOSSIBLE TO CALCULATE AT THE MOMENT.                         
                                                                                
CLASS(T):                                                                       
        INCLASS;                                                                
                                                                                
                 <-- SIMPAP.                                                    
                                                                                
** MOVE ADVP TO THE RIGHT SIDE OF AP - 01/27/86.                                
                                                                                
SIMPAP(T):                                                                      
         ADVPAP,                                                                
         APADVP;                                                                
                                                                                
                 <-- LRELPT.                                                    
** MAY 20, 1985.                                                                
                                                                                
LRELPT(T):    ** LOCK RELCL.                                                    
          RELPTL;                                                               
                                                                                
                 <-- SFCL2.                                                     
                                                                                
                                                                                
SFCL2(T):    ** ASSIGNMENT OF SYNTACTIC FUNCTIONS TO ARGS OF RELCL.             
         RCLGEN1, ** ARG0,ARG1,ARG2, RELP=ARG0.                                 
         RCLGEN2, ** ARG0,ARG1,ARG2, RELP=ARG1 OR ARG2.                         
         RCLGEN3, ** ARG0,(ARG1 OR ARG2), RELP=ARG0.                            
         RCLGEN4, ** ARG0,(ARG1 OR ARG2), RELP=ARG1 OR ARG2.                    
         RCLGEN5; ** NO ARG0, RELP=ARG1.                                        
                   <-- SFCL3.                                                   
                                                                                
SFCL3(T):    ** ASSIGNMENT OF SYNTACTIC FUNCTIONS TO ARGS OF PARTCL.            
         PTCLGEN1, ** PARTCL WITH ARG1, ARG2.                                   
         PTCLGEN2; ** PARTCL WITH ARG1 OR ARG2.                                 
                                                                                
                   <-- SFCL4.                                                   
                                                                                
SFCL4(T):    ** INSERTION OF 'KAN' FOR SUB.                                     
         PTCLINS;  ** INSERTION OF 'KAAN' FOR SUBJ.                             
                                                                                
                   <-- SFCL5.                                                   
                                                                                
SFCL5(T):   ** INSERTION OF SCL BOUNDARY.                                       
         SCLINS1,  ** SCL AS SUBJ.                                              
         SCLINS2;  ** SCL AS OBJ.                                               
                   <-- CONDASP.                                                 
                                                                                
CONDASP(T): ** SET ASP MARKER FOR CONDITIONAL CL - JUNE 10,86.                  
         SETASP1;  ** SET GOING FOR CL WITH CONDITIONAL CL.                     
                                                                                
                   <-- VERBGEN1.                                                
                                                                                
** VERBGEN1 - 8 ARE FOR VK FORMATION, ADDING ELEMENTS BEFORE AND                
   AFTER THE MAIN VERB FOR TENSE, ASPECT, ETC.                                  
                                                                                
VERBGEN1(T): ** VK GENERATION.                                                  
           VKGEN1; ** ASP TO THE RIGHT.                                         
                                                                                
                   <-- VERBGEN2.                                                
                                                                                
VERBGEN2(T):                                                                    
           VKGEN2; ** MODAL TO THE RIGHT.                                       
                                                                                
                   <-- VERBGEN3.                                                
                                                                                
VERBGEN3(T):                                                                    
           VKGEN3; ** ADVP TO THE RIGHT.                                        
                                                                                
                   <-- VERBGEN4.                                                
                                                                                
VERBGEN4(T):                                                                    
           VKGEN4; ** MODAL TO THE LEFT.                                        
                                                                                
                   <-- VERBGEN5.                                                
                                                                                
VERBGEN5(T):                                                                    
           VKGEN5; ** ASP TO THE LEFT.                                          
                                                                                
                   <-- VERBGEN6.                                                
                                                                                
VERBGEN6(T):                                                                    
           VKGEN6; ** ADV TO THE LEFT.                                          
                                                                                
                   <-- VERBGEN7.                                                
                                                                                
VERBGEN7(T):                                                                    
           VKGEN7; ** NEG TO THE LEFT.                                          
                                                                                
                   <-- VERBGEN8.                                                
                                                                                
VERBGEN8(T):                                                                    
           VKGEN8; ** 'THUK' TO THE LEFT.                                       
                                                                                
                   <-- OBJIN.                                                   
OBJIN(T):  ** INSERTION OF OBJ INTO VK.                                         
         OBJINVK1,  ** OBJ1, OBJ2.                                              
         OBJINVK2,  ** OBJ1 OR OBJ2.                                            
         OBJ2TO,    ** INSERTION OF PREP IN FRONT OF OBJ2 - JUNE 10,86.         
         SMARGOF;   ** INSERTION OF 'KHONG' BETWEEN SMARGS - JUNE 10,86.        
                   <-- PCIRC.                                                   
                                                                                
** INSERTION OF PREP BEFORE CIRC - JUNE 19,86.                                  
                                                                                
PCIRC(T):                                                                       
         CAUSE,     ** 'PHRO'.                                                  
         SOURCE,    ** 'CHAK'.                                                  
         AIM,       ** 'THI'.                                                   
         FIREC,     ** 'PHUA' - FINAL OR RECEPT.                                
         CONSEQ,    ** 'PHROCHANAN'.                                            
         INST,      ** 'DOI'.                                                   
         ACCOMP,    ** 'KAP'.                                                   
         PROX;      ** 'PRAMAN'.                                                
                                                                                
                   <-- INTDRV.                                                  
                                                                                
INTDRV(T): ** THAI DERIVATION FORMATION.                                        
          TAN,     ** 'KHWAM___'.                                               
          TAM,     ** 'YANG___'.                                                
          TVA1,    ** '___DAI'.                                                 
          TVA2,    ** 'NA___'.                                                  
          TVA3,    ** '---WAI'.                                                 
          TVAM1,   ** 'YANG___DAI'.                                             
          TVAM2,   ** 'YANG NA___'.                                             
          TVAM3,   ** 'YANG___WAI'.                                             
          TVN1,    ** 'KAN___'.                                                 
          TVN2,    ** 'KHWAM___'.                                               
          TVNAG,   ** 'PHU___'.                                                 
          TVNI;    ** 'KHRUANG___'.                                             
                                                                                
                   <-- CLOSURE.                                                 
                                                                                
CLOSURE(T):       ** CLOSING THE GRAMMAR.                                       
         ELUL0,   ** ELIMINATION OF UL0 NODES.                                  
         ELFSUBJ; ** ELIMINATION OF FORMAL SUBJECT - JUNE 10,86.                
                   <--&NUL.                                                     
                                                                                
                                                                                
                                                                                
                   -REGLES-                                                     
                                                                                
** INITIAL LOCK OF VCL, CIRC, AND COMP.                                         
INITLOCK:  0(1) / 0: $VCL-OU-$CIRC -OU- $COMP; 1:$GOV                           
       ==  0(1) / /                                                             
           0:0, KLOCK:=1;  1:1, SFLOCK:=1, KLOCK:=1.                            
                                                                                
** LOCK RELCL (MAY 20, 1985).                                                   
RELPTL: 0(1) / 0: $RELCL; 1:$GOV                                                
       ==  0(1) / /                                                             
           0:0, KLOCK:=1;  1:1, SFLOCK:=1, KLOCK:=1.                            
                                                                                
                                                                                
** ARG0, ARG1, ARG2 -- HE GAVE ME MONEY.                                        
                                                                                
ACLSF1: (*0) 0&N(1(5),$A,2(6),$B,3(7),$C,4(8))/                                 
       0:$LNBECL;                                                               
       1:$FARG0;     5:$GOV;                                                    
       2:$GOV;       6:$GOV;                                                    
       3:$FARG1;     7:$GOV;                                                    
       4:$FARG2;     8:$GOV                                                     
       == 0(1(5),$A,2(6),$B,3(7),$C,4(8))/ /                                    
       1:1, SF:=SUBJ, SFLOCK:=1;                                                
       3:3, SF:=OBJ1, SFLOCK:=1;                                                
       4:4, SF:=OBJ2, SFLOCK:=1.                                                
                                                                                
                                                                                
** ARG0 AND ARG1 -- HE GAVE MONEY.                                              
                                                                                
ACLSF2A: (*0) 0&N(1(4),$A,2(5),$B,3(6))/                                        
       0:$LNBECL;                                                               
       1:$FARG0;                                                                
       2:$GOV;                                                                  
       3:$FARG1; 4:$GOV; 5:$GOV; 6:$GOV                                         
       ==0(1(4),$A,2(5),$B,3(6))/ /                                             
       1:1,SF:=SUBJ, SFLOCK:=1;                                                 
       3:3, SFLOCK:=1,  SF(3):=OBJ1.                                            
                                                                                
** ARG0 AND ARG2 -- HE GAVE ME.                                                 
                                                                                
ACLSF2B: (*0) 0&N(1(4),$A,2(5),$B,3(6))/                                        
       0:$LNBECL;                                                               
       1:$FARG0;                                                                
       2:$GOV;                                                                  
       3:$FARG2; 4:$GOV; 5:$GOV; 6:$GOV                                         
       ==0(1(4),$A,2(5),$B,3(6))/ /                                             
       1:1,SF:=SUBJ, SFLOCK:=1;                                                 
       3:3, SFLOCK:=1,  SF(3):=OBJ2.                                            
                                                                                
                                                                                
** BECLAUSE - BECL=EQ - 'SHE IS A TEACHER' - JUNE 10, 86111.                    
                                                                                
ACLSF3A: (*0) 0&N(1(5),$A,2(4),$B,3(6))/                                        
       0:$LBECL;                                                                
       1:$FARG0;                                                                
       2:$GOV; 4:$GOV; 5:$GOV; 6:$GOV;                                          
       3:RL-E-ARG1                                                              
       == 0(1(5),$A,2(4),$B,3(6))/ /                                            
       1:1,SF:=SUBJ, SFLOCK:=1;                                                 
       3:3,SFLOCK:=1, SF:=OBJ1, K:=NP, UL:= '*NP', KLOCK:=1;                    
       6:6,CATLOCK:=1, SFLOCK:=1.                                               
                                                                                
** BECLAUSE - BECL=PROP - 'SHE IS BEAUTIFUL' - JUNE 10,86.                      
** ELIMINATE 'COP' WITHOUT UL AND CHANGE AP TO VK.                              
                                                                                
ACLSF3B: (*0) 0&N(1(5),$A,2(4),$B,3(6))/                                        
       0:$LBECL;                                                                
       1:$FARG0;                                                                
       2:$GOV; 5:$GOV; 6:$GOV;                                                  
       3:RL-E-TRL0;                                                             
       4:$GOV -ET- CDEL-E-1                                                     
       == 0(1(5),$A,$B,3(6))/*<--2; *<--4/                                      
       1:1, SF:=SUBJ, SFLOCK:=1;                                                
       3:2, SFLOCK:=1, KLOCK:=1, TYPE:=TYPE0, BECL:=BECL0, TASP:=TASP(4),       
            POSIT:=POSIT(4);                                                    
       6:4, TCAT:=V, TSUBA:=TSUBA0, CATLOCK:=1, SFLOCK:=1,                      
            UL:=UL(6).                                                          
                                                                                
                                                                                
** ARG0 - THE CHILD CRIED.                                                      
                                                                                
ACLSF6: (*0) 0&N(1(3),$A,2(4))/                                                 
       0:$LNBECL;                                                               
       1:$FARG0;                                                                
       2:$GOV; 3:$GOV; 4:$GOV                                                   
       == 0(1(3),$A,2(4))/ /                                                    
       1:1, SF:=SUBJ, SFLOCK:=1.                                                
                                                                                
** ARG1, ARG2 --  MONEY WAS GIVEN TO STUDENTS.                                  
                                                                                
ACLSF4: (*0) 0&N(1(4),$A,2($X,5,$Y),$B,3(6)) /                                  
       0:$LNBECL;                                                               
       1:$FARG1;                                                                
       2:$GOV; 4:$GOV; 5:$GOV; 6:$GOV;                                          
       3:$FARG2                                                                 
       == 0(1(4),$A,2($X,5,$Y),$B,3(6)) / /                                     
       1:1,SF:=SUBJ, SFLOCK:=1;                                                 
       2:2,TASP:=ACH;                                                           
       3:3,SF:=OBJ2, SFLOCK:=1.                                                 
                                                                                
** ARG1, NO ARG2 -- THE HOUSE WAS BUILT.                                        
                                                                                
ACLSF7: (*0) 0&N(1(3),$A,2($X,4,$Y))/                                           
       0:$LNBECL;                                                               
       1:$FARG1;                                                                
       2:$GOV                                                                   
       == 0(1(3),$A,2($X,4,$Y))/ /                                              
       1:1,SF:=SUBJ, SFLOCK:=1;                                                 
       2:2,TASP:=ACH.                                                           
                                                                                
                                                                                
** RULE FOR SUBJECT -- 02/15/85.                                                
** MODIFIED JUNE 10,86.                                                         
                                                                                
KSUBJ:    (*0) 0&N(1(2),3(4))/                                                  
       0:$LCL;                                                                  
       1:$LSUBJ;                                                                
       2:$GOV; 3:$GOV; 4:$GOV                                                   
       == 0(1(2),3(4))/ /                                                       
       1:1, KLOCK := 1;                                                         
       2:2, CATLOCK:= 1,                                                        
       -SI- K(1)-E-NP -ALORS-                                                   
            -SI- TCAT(2)-E-N -OU- TCAT(2)-E-R -OU-                              
                 TCAT(2)-E-V -ET- FDRV(2)-NINC- (VN1-U-VN2) -OU-                
                 TSUBA(2)-E-ADJ -ET- FDRV(2)-NINC-AN -ALORS-                    
                 -SI- TSUBA(2)-E-ADJ -ALORS- TDRV(2):=AN, TCAT(2):=N,           
                      UL(1):='*NP'                                              
                 -SNSI- TCAT(2)-E-V -ALORS- TCAT(2):=N,UL(1):='*NP'             
                      -SI- SEMV(2) -E- STATE -ALORS- TDRV(2):=VN2               
                      -SINON- TDRV(2):=VN1                                      
                      -FSI-                                                     
                 -SINON-  UL(1):='*NP'                                          
                 -FSI-                                                          
            -SINON- K(1):=SCL,BECL(1):=PROP,CREATE(1):=SCL                      
            -FSI-                                                               
       -SNSI- K(1)-E-PARTCL -ALORS- CREATE(1):=PARTCL                           
       -SINON- CREATE(1):=SCL                                                   
       -FSI-.                                                                   
                                                                                
** ASSIGNMENT OF A CLASS FOR OBJECTS IN A CLAUSE -- 02/15/85.                   
** MODIFIED JUNE 10,86.                                                         
                                                                                
KOBJ:    (2) 0&N(1(4),$A,2(3))/                                                 
      0:$LCL; 1:$GOV; 4:$GOV; 3:$GOV;                                           
      2:KLOCK-NE-1 -ET- $LOBJ                                                   
      == 2(3) / /                                                               
      -SI- K(2)-E-NP -ALORS-                                                    
           -SI- TCAT(3)-E-N -OU- TCAT(3)-E-R -OU-                               
                TCAT(3)-E-V -ET- FDRV(3)-NINC- (VN1-U-VN2) -OU-                 
                TSUBA(3)-E-ADJ -ET- FDRV(3)-NINC-AN -ALORS-                     
                K(2):= NP, UL(2):= '*NP',                                       
                SFLOCK(3):=1, CATLOCK(3):=1, KLOCK(2):=1                        
                -SI- TCAT(3)-E-V -ALORS- TCAT(3):=N,                            
                     TSUBN(3):=CN, CREATE(2):=NP                                
                     -SI- SEMV(3) -E- STATE -ALORS- TDRV(3):=VN2                
                     -SINON- TDRV(3):=VN1                                       
                     -FSI-                                                      
                -SNSI- TSUBA(3)-E-ADJ -ALORS- TCAT(3):=N, TDRV(3):=AN,          
                     TSUBN(3):=CN, TSUBA(3):=TSUBA0, CREATE(2):=NP              
                -SNFSI-                                                         
           -SNSI- (-TVL1(4) -INC- SUB -ET- SF(2) -E- OBJ1-) -OU-                
                  (-TVL2(4) -INC- SUB -ET- SF(2) -E- OBJ2-)-ALORS-              
                K(2):= SCL, UL(2):= '*SCL', CREATE(2):= SCL,                    
                SFLOCK(3):=1, CATLOCK(3):=1, KLOCK(2):= 1                       
           -SNSI- (-TVL1(4) -INC- V -ET- SF(2) -E- OBJ1-) -OU-                  
                  (-TVL2(4) -INC- V -ET- SF(2) -E- OBJ2-) -ALORS-               
                K(2):= PARTCL, UL(2):= '*PARTCL', CREATE(2):= PARTCL,           
                SFLOCK(3):=1, CATLOCK(3):=1, KLOCK(2):= 1                       
           -SNFSI-                                                              
      -SNSI- K(2) -E- SCL -ALORS-                                               
           -SI- SF(2)-E- OBJ1 -ET- TVL1(4) -I- SUB -NE- TVL10 -OU-              
                SF(2)-E- OBJ2 -ET- TVL2(4) -I- SUB -NE- TVL20 -ALORS-           
                K(2):= SCL, UL(2):= '*SCL',                                     
                SFLOCK(3):=1, CATLOCK(3):=1, KLOCK(2):= 1                       
           -SNSI- (-TVL1(4) -INC- V -ET- SF(2) -E- OBJ1-) -OU-                  
                  (-TVL2(4) -INC- V -ET- SF(2) -E- OBJ2-) -ALORS-               
                K(2):= PARTCL, UL(2):= '*PARTCL', CREATE(2):= PARTCL,           
                SFLOCK(3):=1, CATLOCK(3):=1, KLOCK(2):= 1                       
           -SNFSI-                                                              
      -SINON-                                                                   
           -SI- SF(2)-E- OBJ1 -ET- TVL1(4) -I- V -NE- TVL10 -OU-                
                SF(2)-E- OBJ2 -ET- TVL2(4) -I- V -NE- TVL20 -ALORS-             
                K(2):=PARTCL, UL(2):= '*PARTCL',                                
                SFLOCK(3):=1, CATLOCK(3):=1, KLOCK(2):= 1                       
           -SNSI- SF(2) -E- OBJ1 -ET- TVL1(4) -I- SUB -NE- TVL10 -OU-           
                  SF(2) -E- OBJ2 -ET- TVL2(4) -I- SUB -NE- TVL20 -ALORS-        
                K(2):= SCL, UL(2):= '*SCL', CREATE(2):= PARTCL,                 
                SFLOCK(3):=1, CATLOCK(3):=1, KLOCK(2):= 1                       
           -SNFSI-                                                              
      -SNFSI-.                                                                  
                                                                                
** NP CREATION AS OBJ - MODIFIED JUNE 10,86.                                    
                                                                                
NPOBJ: (2) 0&N(1(4),$A,2(3))/                                                   
      0:$LCL; 1:$GOV; 4:$GOV;                                                   
      3:$GOV;                                                                   
      2:KLOCK-NE- 1 -ET- $LOBJ                                                  
      == 2(3) /  /                                                              
      2:2, K:= NP, UL:= '*NP', KLOCK:=1;                                        
      3:3, SFLOCK:=1, CATLOCK:=1,                                               
                -SI- TCAT(3)-E-V -ALORS- TCAT(3):=N,                            
                     TSUBN(3):=CN, CREATE(2):=NP                                
                     -SI- SEMV(3) -E- STATE -ALORS- TDRV(3):=VN2                
                     -SINON- TDRV(3):=VN1                                       
                     -FSI-                                                      
                -SNSI- TSUBA(3)-E-ADJ -ALORS- TCAT(3):=N, TDRV(3):=AN,          
                     TSUBN(3):=CN, TSUBA(3):=TSUBA0, CREATE(2):=NP              
                -SNFSI-.                                                        
                                                                                
** LOCK SMARG NP - JUNE 17,86.                                                  
                                                                                
LSMARG: 0/                                                                      
      0:RL -E- SMARG                                                            
      == 0/ /                                                                   
      0:0, KLOCK:=1, SFLOCK:=1.                                                 
                                                                                
** NP CREATION -- ( MARCH 28,1985).                                             
                                                                                
** PREDICATIVE NOUN GOV HAVING ARG1 AND ARG1 OR ARG2.                           
                                                                                
NPARG1: (*0) 0&N(1,$B,2(4),$C,3(5))/                                            
      0: $LNP ;1:$GOV -ET-TVL1-INC-N; 2:$FARG1 -OU- $FARG2;                     
      3: $FARG0; 4:$GOV; 5: $GOV                                                
      == 0(1,$B,2(4),$C,3(5))/ /                                                
      2:2, SFLOCK:= 1, K:=NP, KLOCK:=1,                                         
           -SI- RL(2)-E-ARG1 -ALORS- TVL1(2):=N, SF(2):=OBJ1                    
           -SINON-TVL1(2):=TVL2(1)                                              
           -FSI-;                                                               
      3:3, SF:=SUBJ, SFLOCK:=1, K:=NP, KLOCK:=1, TVL1:=DOI;                     
      4:4, TCAT:=N, CATLOCK:=1;                                                 
      5:5, TCAT:=N, CATLOCK:=1.                                                 
** PREDICATIVE NOUN HAVING ARG0 AND ARG1 OR ARG2.                               
                                                                                
NPARG2: (*0) 0&N(1,$B,2(4),$C,3(5))/                                            
       0:$LNP; 1:$GOV -ET- TVL1-NINC-N; 2:$FARG0; 3:$FARG1-OU-$FARG2;           
       4:$GOV; 5:$GOV                                                           
       == 0(1,$B,2(4),$C,3(5))/ /                                               
       2:2, SFLOCK:=1, K:=NP, KLOCK:=1, TVL1:=KHONG, SF:=SUBJ;                  
       3:3, SFLOCK:=1, K:=NP, KLOCK:=1,                                         
            -SI- RL(3)-E-ARG1 -ALORS- TVL1(3):=TVL1(1), SF(3):=OBJ1             
            -SINON- TVL1(3):=TVL2(1), SF(3):=OBJ2                               
            -FSI-;                                                              
       4:4, TCAT:=N, CATLOCK:=1;                                                
       5:5, TCAT:=N, CATLOCK:=1.                                                
                                                                                
** PREDICATIVE NOUN GOV WITH ONLY ONE ARG.                                      
                                                                                
NPARG3: (*0) 0&N(1,$B,2(4))/                                                    
       0:$LNP; 1:$GOV; 2:$FARG; 4:$GOV                                          
       == 0(1,$B,2(4))/ /                                                       
       2:2, SFLOCK:=1, K:=NP, KLOCK:=1,                                         
            -SI- RL(2)-E-ARG1 -ALORS- SF(2):=OBJ1                               
                 -SI- TVL1(1)-INC-N -ALORS- TVL1(2):=N                          
                 -SINON- TVL1(2):=TVL1(1)                                       
                 -FSI-                                                          
            -SNSI- RL(2)-E-ARG2 -ALORS- TVL1(2):=TVL2(1),SF(2):=OBJ2            
            -SINON- TVL1(2):=DOI, SF(2):=SUBJ                                   
            -FSI-;                                                              
       4:4, TCAT:=N, CATLOCK:=1.                                                
                                                                                
** JUXT OF 3 NS - MODIFIED JUNE 10,86.                                          
                                                                                
NNN: (*0) 0(1,*,2,*,3)/                                                         
     0:$LNP; 1:$FJUXT; 2:$FJUXT; 3:$GOV                                         
     == 0(3,2,1)/ /                                                             
     1:1, SFLOCK:=1, CATLOCK:=1;                                                
     2:2, SFLOCK:=1, CATLOCK:=1;                                                
     3:3, SFLOCK:=1, CATLOCK:=1.                                                
                                                                                
                                                                                
** JUXT OF 2 NS - MODIFIED JUNE 10, 86.                                         
                                                                                
NN: (*0) 0(1,*,2)/                                                              
    0:$LNP; 1:$FJUXT; 2:$GOV                                                    
    == 0(2,1)/ /                                                                
    1:1, SFLOCK:=1, CATLOCK:=1;                                                 
    2:2, SFLOCK:=1, CATLOCK:=1.                                                 
                                                                                
** ABSORPTION OF APS - MODIFIED JUNE 10,86.                                     
                                                                                
NPAP:(*0) 0(1(3),$A,2)/                                                         
   0:$LNP; 1:$FQUAL; 2:$GOV; 3:$GOV                                             
   == 0($A,2,1(3))/ /                                                           
   1:1, SFLOCK:=1, KLOCK:=1;                                                    
   3:3, CATLOCK:=1.                                                             
                                                                                
** LOCK AP ALREADY ON THE RIGHT SIDE OF N.                                      
                                                                                
NPAPL: 0(2,$A,1(3))/                                                            
       0:$LNP; 1:$FQUAL; 2:$GOV; 3:$GOV                                         
       == 0(2,$A,1(3))/ /                                                       
       1:1, SFLOCK:=1,KLOCK:=1;                                                 
       3:3, CATLOCK:=1.                                                         
                                                                                
** ABSORPTION OF QTFS (TIME WORD).                                              
                                                                                
NPQTF1: (0) 0&N(1,2,$A)/                                                        
        0:$LNP; 1:$FQFIER; 2:$GOV -ET- SEM-INC-TIME;                            
        $A: $AP -OU- TCAT-E-N                                                   
        == 0(1,2,$A)/ /                                                         
        1:1, SFLOCK:=1, CATLOCK:=1.                                             
                                                                                
                                                                                
** ABSORPTION OF QTFS (NO TIME WORD).                                           
                                                                                
NPQTF2: (0) 0&N(1,2,$A)/                                                        
        0:$LNP; 1:$FQFIER; 2:$GOV -ET- SEM-NINC-TIME;                           
        $A: $AP -OU- TCAT-E-N                                                   
        == 0(2,$A,1)/ /                                                         
        1:1, SFLOCK:=1, CATLOCK:=1.                                             
                                                                                
** ABSORPTION OF DES - MODIFIED JUNE 10, 86.                                    
                                                                                
NPDESP: (0) 0&N(1,$A,2,$X)/                                                     
        0:$LNP; 1:$FDEM; 2:$GOV                                                 
        == 0(2,$A,$X,1)/ /                                                      
        1:1, SFLOCK:=1, CATLOCK:=1;                                             
        2:2, CATLOCK:=1.                                                        
                                                                                
** MOVE ADVP TO THE RIGHT OF AP - MODIFIED JUNE 10,86.                          
                                                                                
ADVPAP: (*0) 0(1,$A,2)/                                                         
        0:$AP; 1:$FQUAL; 2:$GOV                                                 
        == 0(2,1)/ /                                                            
        1:1, SFLOCK:=1, KLOCK:=1;                                               
        2:2, CATLOCK:=1.                                                        
                                                                                
** LOCK ADVP ALREADY ON THE RIGHT SIDE - MODIFIED JUNE 10,86.                   
                                                                                
APADVP: (*0) 0(2,$A,1)/                                                         
        0:$AP; 1:$FQUAL; 2:$GOV                                                 
        == 0(2,1)/ /                                                            
        1:1, SFLOCK:=1, KLOCK:=1;                                               
        2:2, CATLOCK:=1.                                                        
                                                                                
                                                                                
** INSERTION OF CLASSIFIER - MODIFIED JUNE 10,86.                               
                                                                                
INCLASS: (0) 0(1,$X,2($Y),*)/                                                   
         0:$LNP; 1:$GOV; 2:RS-E-QFIER -OU-(-TSUBD-E-DEM -OU-                    
                                            TSUBA-E-ORD-)                       
         == 0(1,$X,3,2($Y),4)/3<--*;4<--*/                                      
         3:*FTNUL; 4:*FTNUL,                                                    
         -SI- TSUBA(2)-NE-ORD -ALORS- UL(4):='UL0', TCAT(3):=CLASS,             
              CATLOCK(3):=1                                                     
              -SI- SEM(1)-NINC-ANIM -ALORS- UL(3):= 'AN'                        
              -SNSI- SEMAN(1)-E-HUMAN -ALORS- UL(3):= 'KHON'                    
              -SINON- UL(3):= 'TUA'                                             
              -FSI-                                                             
         -SINON- UL(3):='UL0', TCAT(4):=CLASS, CATLOCK(4):=1                    
              -SI- SEM(1)-NINC-ANIM -ALORS- UL(4):= 'AN'                        
              -SNSI- SEMAN(1)-E-HUMAN -ALORS- UL(4):= 'KHON'                    
              -SINON- UL(4):= 'TUA'                                             
              -FSI-                                                             
         -FSI-.                                                                 
                                                                                
** MAY 17, 1985.                                                                
** ASSIGNMENT OF SF FOR RELCL.                                                  
** RELCL WITH ARG0, ARG1, ARG2 AND RELP REPRESENTING ARG0.                      
** MODIFIED JUNE 10,86.                                                         
                                                                                
RCLGEN1: (*0) 0&N(1(2),$A,3,$B,4,$C,5)/                                         
        0:$LRELCL; 1:$FARG0; 2:$GOV -ET- MCUL-E-SUBS;                           
        3:$GOV; 4:$FARG1; 5:$FARG2                                              
        == 0(1(2),$A,3,$B,4,$C,5)/ /                                            
        2:2, UL(2):='SUNG1', SFLOCK:=1, CATLOCK:=1;                             
        1:1, SF:=SUBJ, SFLOCK:=1; 4:4, SF:= OBJ1, SFLOCK:=1;                    
        5:5, SF:= OBJ2, SFLOCK:=1.                                              
                                                                                
** RELCL WITH ARG0, ARG1, ARG2 AND RELP REPRESENTING ARG1 OR ARG2.              
                                                                                
                                                                                
RCLGEN2: (*0) 0&N(1(2),$A,3,$B,4,$C,5)/                                         
        0:$LRELCL; 1:$FARG1 -OU- $FARG2; 2:$GOV -ET- MCUL-E-SUBS;               
        3:$GOV; 4:$FARG0; 5:$FARG1 -OU- $FARG2                                  
        == 0(1(2),$A,4,$B,3,$C,5) / /                                           
        2:2, UL(2):= 'SUNG1', SFLOCK:=1, CATLOCK:=1;                            
        4:4, SF:= SUBJ, SFLOCK:=1;                                              
        1:1, SFLOCK:=1, -SI- RL(1)-E-ARG1 -ALORS- SF(1):= OBJ1                  
                        -SINON- SF(1):= OBJ2                                    
                        -FSI-;                                                  
        5:5, SFLOCK:=1, -SI- RL(5) -E- ARG1 -ALORS- SF(5):= OBJ1                
                        -SINON- SF(5):= OBJ2                                    
                        -FSI-.                                                  
                                                                                
** RELCL WITH ARG0 AND ARG1 OR ARG2, RELP REPRESENTING ARG0.                    
                                                                                
RCLGEN3: (*0) 0&N(1(2),$A,3,$B,4)/                                              
        0:$LRELCL; 1:$FARG0; 2:$GOV -ET- MCUL-E-SUBS;                           
        3:$GOV; 4:$FARG1 -OU- $FARG2                                            
        == 0(1(2),$A,3,$B,4)/ /                                                 
        2:2, UL(2):='SUNG1', SFLOCK:=1, CATLOCK:=1;                             
        1:1, SF:=SUBJ, SFLOCK:=1;                                               
        4:4, SFLOCK:=1, -SI- RL(4)-E-ARG1 -ALORS- SF(4):= OBJ1                  
                        -SINON- SF(4):= OBJ2                                    
                        -FSI-.                                                  
                                                                                
** RELCL WITH ARG0 AND ARG1 OR ARG2, RELP REPRESENTING ARG1 OR ARG2.            
** MODIFIED JUNE 10,86.                                                         
                                                                                
RCLGEN4: (*0) 0&N(1(2),$A,3,$B,4)/                                              
        0:$LRELCL; 1:$FARG1-OU-$FARG2;2:$GOV -ET- MCUL-E-SUBS;                  
        3:$GOV; 4:$FARG0                                                        
        == 0(1(2),$A,4,$B,3)/ /                                                 
        2:2, UL(2):= 'SUNG1', SFLOCK:=1, CATLOCK:=1;                            
        4:4, SF:=SUBJ, SFLOCK:=1;                                               
        1:1, SFLOCK:=1, -SI- RL(1)-E-ARG1 -ALORS- SF(1):= OBJ1                  
                        -SINON- SF(1):= OBJ2                                    
                        -FSI-.                                                  
                                                                                
** RELCL WITHOUT ARG0, RELP REPRESENTING ARG1.                                  
                                                                                
RCLGEN5: (*0) 0&N(1(2),$A,3)/                                                   
        0:$LRELCL; 1:$FARG1; 2:$GOV -ET- MCUL-E-SUBS;                           
        3:$GOV -ET- VOICE -E- PAS                                               
        == 0(1(2),$A,3)/ /                                                      
        2:2, UL(2):= 'SUNG1', SFLOCK:=1, CATLOCK:=1;                            
        1:1, SF:=SUBJ, SFLOCK:=1;                                               
        3:3, TASP:= ACH, POSIT:= AFTER.                                         
                                                                                
** ASSIGNMENT OF SF FOR PARTCL.                                                 
                                                                                
** PARTCL WITH ARG1, ARG2.                                                      
                                                                                
PTCLGEN1: (*0) 0&N(1,$A,2,$B,3)/                                                
         0: $LPARTCL; 1:$GOV; 2:$FARG1; 3:$FARG2                                
         == 0(1,$A,2,$B,3)/ /                                                   
         2:2, SF:= OBJ1, SFLOCK:=1;                                             
         3:3, SF:= OBJ2, SFLOCK:=1.                                             
                                                                                
** PARTCL WITH ARG1 OR ARG2.                                                    
                                                                                
PTCLGEN2: (*0) 0&N(1,$A,2)/                                                     
         0:$LPARTCL; 1:$GOV; 2:$FARG1 -OU- $FARG2                               
         == 0(1,$A,2)/ /                                                        
         2:2, SFLOCK:=1, -SI- RL(2)-E-ARG1 -ALORS- SF(2):=OBJ1                  
                         -SINON- SF(2):= OBJ2                                   
                         -FSI-.                                                 
                                                                                
** PUT 'KAN'---'NAN' AS BOUNDARY OF PARTCL WHICH IS SUBJ - JUNE 10,86.          
                                                                                
PTCLINS: (0) 0($X,1,$A)/                                                        
        0:$LPARTCL -ET- SF -E- SUBJ; 1:$GOV                                     
        == 0(2,$X,1,$A,3)/2<-- *;3<--*/                                         
        2:*FTNUL, UL(2):= 'KAN', SFLOCK:=1, CATLOCK:=1, SF:=REG;                
        3:*FTNUL, UL(3):= 'NAN2', SFLOCK:=1, CATLOCK:=1, SF:=REG.               
** SCL GENERATION.                                                              
** SCL AS SUBJ.                                                                 
                                                                                
SCLINS1: (0) 0(*,1,$A)/                                                         
        0:$LSCL -ET- SF -E- SUBJ; 1:$LSUBJ                                      
        == 0(2,1,$A,3)/2<-- *; 3<-- */                                          
        2:*FTNUL, UL(2):= 'KANTHI', SFLOCK:=1, CATLOCK:=1, SF:=REG;             
        3:*FTNUL, UL(3):= 'NAN2', SFLOCK:=1, CATLOCK:=1, SF:=LXAX.              
                                                                                
** SCL AS OBJ1 OR OBJ2 - JUNE 10,86.                                            
** ATTACH 'WA' IN FRONT OF OBJ.                                                 
SCLINS2: (0) 0($A)/                                                             
        0:$LSCL -ET-(-SF-E-OBJ1 -OU- SF-E-OBJ2-)                                
        == 0(2,$A)/2<--*/                                                       
        2:*FTNUL, UL(2):= 'WA', SFLOCK:=1, CATLOCK:=1, SF:=REG.                 
                                                                                
** ATTACH 'KAE','THI','SU' IN FRONT OF OBJ2 WHICH IS NP - JUNE 25, 86.          
                                                                                
OBJ2TO: (0) 0($A,1)/                                                            
        0:$LOBJ2 -ET- K-E-NP;1:$GOV                                             
        == 0(2,$A,1)/2<--*/                                                     
        2:*FTNUL, SFLOCK:=1, CATLOCK:=1, SF:=LXAX,                              
          -SI- RS(1)-E-AIM -ET- SEM(1)-E-LOC -ALORS- UL(2):='SU'                
          -SNSI- RS(1)-E-LOCAL -ALORS- UL(2):='THI'                             
          -SINON- UL(2):='KAE'                                                  
          -FSI-.                                                                
                                                                                
** INSERTION OF 'KHONG' BETWEEN 2 SMARGS - JUNE 10, 86.                         
                                                                                
SMARGOF: (*0) 0&N(1,$A,3($B,4))/                                                
        0:$LNP; 1:$GOV -ET- RL -E- SMARG;                                       
        3:$LNP -ET- RL -E- SMARG; 4: $GOV                                       
        == 0(1,$A,3(5,$B,4))/5<--*/                                             
        3:3;                                                                    
        5:*FTNUL, UL(5):='KHONG', SFLOCK:=1, CATLOCK:=1, SF:=LXAX.              
                                                                                
** SET GOING ASP FOR COND CL - JUNE 10,86.                                      
                                                                                
SETASP1: (*0) 0&N(1,2(3))/                                                      
        0:$VCL;                                                                 
        1: K -E- SCL -ET- RS -E- COND;                                          
        2:$VCL; 3:$GOV                                                          
        == 0(1,2(3))/ /                                                         
        2:2, TASP:=GOING; 3:3, TASP:=GOING.                                     
                                                                                
** VK GENERATION.                                                               
** MOVE ASP TO THE RIGHT.                                                       
                                                                                
VKGEN1: 0(1)/                                                                   
       0:$VK; 1:$GOV -ET- $ACHAFT                                               
       == 0(1,2)/2<-- */                                                        
       2:*FTNUL, UL(2):= 'LAEO', SFLOCK:=1, CATLOCK:=1, SF:=LXAX.               
                                                                                
** MOVE MODAL TO THE RIGHT.                                                     
                                                                                
VKGEN2: (*0) 0&N(1,$A,2)/                                                       
       0:$VK; 1:$FMAFT; 2:$GOV                                                  
       == 0($A,2,1)/ /                                                          
       1:1, SFLOCK:=1, CATLOCK:=1.                                              
                                                                                
** MOVE ADVP TO THE RIGHT.                                                      
                                                                                
VKGEN3: (*0) 0&N(1,$A,2)/                                                       
       0:$VK; 1:$FADVP; 2:$GOV                                                  
       == 0($A,2,1)/ /                                                          
       1:1, SFLOCK:=1, CATLOCK:=1.                                              
                                                                                
** MOVE MODAL TO THE LEFT.                                                      
                                                                                
VKGEN4: (*0) 0&N(2,$A,1)/                                                       
       0:$VK; 1:$FMB4; 2:$GOV                                                   
       == 0(1,2,$A)/ /                                                          
       1:1, SFLOCK:=1, CATLOCK:=1.                                              
                                                                                
** MOVE ASP TO THE LEFT.                                                        
** MODIFIED JUNE 26,86.                                                         
                                                                                
VKGEN5: 0(1)/                                                                   
       0:$VK; 1:$GOV -ET- $ACHB4-OU- (-$GOV -ET- $GOING-)                       
                                 -OU- (-$GOV -ET- $PROG-)                       
       == 0(2,1)/2<-- */                                                        
       2:*FTNUL, SFLOCK:=1, CATLOCK:=1, SF:=LXAX,                               
       -SI- TASP(1)-E-ACH -ALORS- UL(2):='PHOENG'                               
       -SNSI- TASP(1)-E-GOING -ALORS- UL(2):='CHA'                              
       -SINON- UL(2):='KAMLANG'                                                 
       -FSI-.                                                                   
                                                                                
** MOVE ADV TO THE LEFT.                                                        
                                                                                
VKGEN6: (*0) 0&N(2,$A,1)/                                                       
       0:$VK; 1:$FADVB4; 2:$GOV                                                 
       == 0(1,2,$A)/ /                                                          
       1:1, SFLOCK:=1, CATLOCK:=1.                                              
                                                                                
** MOVE NEG TO THE LEFT OF V OR MODAL.  ** MODIF: 17/10/86 (CB).                
                                                                                
VKGEN7: 0(1) /                                                                  
**     0:$VK; 1:$GOV -ET- NEG-E-1 -OU- (-TYPE-E-MODAL-ET-NEG-E-1-).             
       0:$VK -ET- NEG-E-1; 1:$GOV -OU- TYPE-E-MODAL                             
       == 0(2,1)/2<-- */                                                        
       2:*FTNUL, UL(2):= 'MAI', SFLOCK:=1, CATLOCK:=1, SF:=LXAX.                
                                                                                
** MOVE 'THUK' TO THE LEFT OF V.                                                
                                                                                
VKGEN8: 0(1)/                                                                   
       0:$VK -OU- $AP; 1:$GOV -ET- THUK-E-Y -ET- VOICE-E-PAS -OU-               
                       (-$GOV -ET- THUK-E-Y -ET- TDRV -NE- TDRV0-)              
       == 0(2,1)/2<-- */                                                        
       2:*FTNUL, UL(2):= 'THUK', SFLOCK:=1, CATLOCK:=1, SF:=LXAX.               
                                                                                
** OBJ1 AND OBJ2 INSERTION INTO VK.                                             
                                                                                
OBJINVK1: (*0) 0&N(1(2),3,4)/                                                   
         0:$LCL; 1:$GOV; 2:$GOV; 3:$LOBJ1 -ET- K-E-NP;                          
         4:$LOBJ2 -ET- K-E- NP                                                  
         == 0(1(2,3,4))/ /                                                      
         3:3, KLOCK:=1; 4:4, KLOCK:=1.                                          
                                                                                
OBJINVK2: (*0) 0&N(1(2),3)/                                                     
         0:$LCL; 1:$GOV; 2:$GOV; 3:$LOBJ1 -ET- K-E-NP -OU-                      
                                  (-$LOBJ2 -ET- K-E- NP-)                       
         == 0(1(2,3))/ /                                                        
         3:3, KLOCK:=1.                                                         
                                                                                
** INSERTION OF 'PHRO' IN FRONT OF CAUSE - JUNE 19,86.                          
CAUSE: (0) 0(*,2,$A)/                                                           
      0:$CIRC -ET- RS-E-CAUSE; 2:$NSUBS                                         
      == 0(1,2,$A)/1<--*/                                                       
      1:*FTNUL, UL(1):='PHRO', SFLOCK:=1, CATLOCK:=1, SF:=REG.                  
                                                                                
** INSERTION OF 'CHAK' IN FRONT OF SOURCE- JUNE 19,86.                          
SOURCE:(0) 0(*,2,$A)/                                                           
      0:$CIRC -ET- RS-E-SOURCE;2:$NSUBS                                         
      == 0(1,2,$A)/1<--*/                                                       
      1:*FTNUL, UL(1):='CHAK', SFLOCK:=1, CATLOCK:=1, SF:=REG.                  
                                                                                
** INSERTION OF 'THI' IN FRONT OF AIM - JUNE 19,86.                             
AIM:(0) 0(*,2,$A)/                                                              
      0:$CIRC -ET- RS-E-AIM; 2:$NSUBS                                           
      == 0(1,2,$A)/1<--*/                                                       
      1:*FTNUL, UL(1):='THI', SFLOCK:=1, CATLOCK:=1, SF:=REG.                   
                                                                                
** INSERTION OF 'PHUA' IN FRONT OF FINAL AND RECEPT - JUNE 19,86.               
FIREC:(0) 0(*,2,$A)/                                                            
      0:$CIRC -ET- RS-E-FINAL -OU- (-RS-E-RECEPT-); 2:$NSUBS                    
      == 0(1,2,$A)/1<--*/                                                       
      1:*FTNUL, UL(1):='PHUA', SFLOCK:=1, CATLOCK:=1, SF:=REG.                  
                                                                                
** INSERTION OF 'PHROCHANAN' IN FRONT OF CONSEQ - JUNE 19,86.                   
CONSEQ:(0) 0(*,2,$A)/                                                           
      0:$CIRC -ET- RS-E-CONSEQ; 2:$NSUBS                                        
      == 0(1,2,$A)/1<--*/                                                       
      1:*FTNUL, UL(1):='PHROCHANAN', SFLOCK:=1, CATLOCK:=1, SF:=REG.            
                                                                                
** INSERTION OF 'DOI' IN FRONT OF INST - JUNE 19,86.                            
INST:(0) 0(*,2,$A)/                                                             
      0:$CIRC -ET- RS-E-INST; 2:$NSUBS                                          
      == 0(1,2,$A)/1<--*/                                                       
      1:*FTNUL, UL(1):='DOI', SFLOCK:=1, CATLOCK:=1, SF:=REG.                   
                                                                                
** INSERTION OF 'KAP' IN FRONT OF ACCOMP - JUNE 19,86.                          
ACCOMP:(0) 0(*,2,$A)/                                                           
      0:$CIRC -ET- RS-E-ACCOMP; 2:$NSUBS                                        
      == 0(1,2,$A)/1<--*/                                                       
      1:*FTNUL, UL(1):='KAP', SFLOCK:=1, CATLOCK:=1, SF:=REG.                   
                                                                                
** INSERTION OF 'PRAMAN' IN FRONT OF PROX - JUNE 19,86.                         
PROX:(0) 0(*,2,$A)/                                                             
      0:$CIRC -ET- RS-E-PROX; 2:$NSUBS                                          
      == 0(1,2,$A)/1<--*/                                                       
      1:*FTNUL, UL(1):='PRAMAN', SFLOCK:=1, CATLOCK:=1, SF:=REG.                
                                                                                
** THAI DERIVATION RULES - FEB 3, 86.                                           
                                                                                
TAN: 0(1)/                                                                      
     0:$NP; 1:$AN -ET- FDRV -NINC- AN                                           
     == 0(2,1)/2<-- */                                                          
     1:1;2:*FTNUL, UL(2):='KHWAM',SFLOCK:=1,CATLOCK:=1,SF:=LXAX.                
                                                                                
TAM: 0(1)/                                                                      
     0:$ADVP; 1:$AM -ET- FDRV -NINC- AM                                         
     == 0(2,1)/2<-- */                                                          
     1:1;2:*FTNUL, UL(2):='YANG',SFLOCK:=1,CATLOCK:=1,SF:=LXAX.                 
                                                                                
TVA1: 0($A,1)/                                                                  
      0:$AP -OU- $VK; 1:$VA1 -ET- FDRV -NINC- VA1                               
      == 0(3,$A,1,2)/2<-- *;3<--*/                                              
      1:1;2:*FTNUL, UL(2):='DAI',SFLOCK:=1,CATLOCK:=1,SF:=LXAX;                 
          3:*FTNUL, UL(3):='SUNG1',SFLOCK:=1,CATLOCK:=1,SF:=LXAX,               
          -SI- K(0) -E- VK -ALORS- UL(3):='UL0'                                 
          -SNFSI-.                                                              
                                                                                
TVA2: 0($A,1)/                                                                  
      0:$AP -OU- $VK; 1:$VA2 -ET- FDRV -NINC- VA2                               
      == 0(3,$A,2,1)/2<-- *;3<--*/                                              
      1:1;2:*FTNUL, UL(2):='NA',SFLOCK:=1,CATLOCK:=1,SF:=LXAX;                  
          3:*FTNUL, UL(3):='SUNG1',SFLOCK:=1,CATLOCK:=1,SF:=LXAX,               
          -SI- K(0) -E- VK -ALORS- UL(3):='UL0'                                 
          -SNFSI-.                                                              
                                                                                
TVA3: 0($A,1)/                                                                  
      0:$AP -OU- $VK; 1:$VA3 -ET- FDRV -NINC- VA3                               
      == 0(3,$A,1,2)/2<-- *;3<--*/                                              
      1:1;2:*FTNUL,UL(2):='WAI',SFLOCK:=1,CATLOCK:=1,SF:=LXAX;                  
          3:*FTNUL,UL(3):='SUNG1',SFLOCK:=1,CATLOCK:=1,SF:=LXAX,                
          -SI- K(0) -E- VK -ALORS- UL(3):='UL0'                                 
          -SNFSI-.                                                              
                                                                                
TVAM1: 0(1)/                                                                    
       0:$ADVP; 1:$VAM1 -ET- FDRV -NINC- VAM1                                   
       == 0(2,1,3)/2<-- *; 3<-- */                                              
       1:1;2:*FTNUL,UL(2):='YANG',SFLOCK:=1,CATLOCK:=1,SF:=LXAX;                
           3:*FTNUL,UL(3):='DAI',SFLOCK:=1,CATLOCK:=1,SF:=LXAX.                 
                                                                                
TVAM2: 0(1)/                                                                    
       0:$ADVP; 1:$VAM2 -ET- FDRV -NINC- VAM2                                   
       == 0(2,3,1)/2<-- *; 3<-- */                                              
       1:1;2:*FTNUL,UL(2):='YANG',SFLOCK:=1,CATLOCK:=1,SF:=LXAX;                
           3:*FTNUL,UL(3):='NA',SFLOCK:=1,CATLOCK:=1,SF:=LXAX.                  
                                                                                
TVAM3: 0(1)/                                                                    
       0:$ADVP; 1:$VAM3 -ET- FDRV -NINC- VAM3                                   
       == 0(2,1,3)/2<-- *;3<-- */                                               
       1:1;2:*FTNUL,UL(2):='YANG',SFLOCK:=1,CATLOCK:=1,SF:=LXAX;                
           3:*FTNUL,UL(3):='WAI',SFLOCK:=1,CATLOCK:=1,SF:=LXAX.                 
                                                                                
TVN1: 0(1)/                                                                     
      0:$NP; 1:$VN1 -ET- FDRV -NINC- VN1                                        
      == 0(2,1)/2<-- */                                                         
      1:1;2:*FTNUL,UL(2):='KAN',SFLOCK:=1,CATLOCK:=1,SF:=LXAX.                  
                                                                                
TVN2: 0(1)/                                                                     
      0:$NP; 1:$VN2 -ET- FDRV -NINC- VN2                                        
      == 0(2,1)/2<-- */                                                         
      1:1;2:*FTNUL,UL(2):='KHWAM',SFLOCK:=1,CATLOCK:=1,SF:=LXAX.                
                                                                                
TVNAG: 0(1)/                                                                    
       0:$NP; 1:$VNAG -ET- FDRV -NINC- VNAG                                     
       == 0(2,1)/2<-- */                                                        
       1:1;2:*FTNUL,UL(2):='PHU',SFLOCK:=1,CATLOCK:=1,SF:=LXAX.                 
                                                                                
TVNI: 0(1)/                                                                     
      0:$NP; 1:$VNI -ET- FDRV -NINC- VNI                                        
      == 0(2,1)/2<-- */                                                         
      1:1;2:*FTNUL,UL(2):='KHRUANG',SFLOCK:=1,CATLOCK:=1,SF:=LXAX.              
                                                                                
                                                                                
ELUL0:           ** ELIMINATION OF UL0 NODES.                                   
       0(1)/1:$UL0                                                              
       == 0/*<--1/.                                                             
                                                                                
ELFSUBJ: 0(1)/1:SF -E- FSUBJ  ** ELIMINATION OF FSUBJ.                          
        == 0/*<--1/.                                                            
                                                                                
                                                                                
                   -FIN-                                                        
                                                                                
