-LHE                                                                            ==INCOG   (XVB     ).                                   
-LHES                                                                           ==INCOG   (XVB     ).                                   
-ME                                                                             ==INCOG   (XVB     ).                                   
-NOS                                                                            ==INCOG   (XVB     ).                                   
-SE                                                                             ==INCOG   (XVB     ).                                   
-TE                                                                             ==INCOG   (XVB     ).                                   
-VOS                                                                            ==INCOG   (XVB     ).                                   
A<RIA                                                                           ==INCOG   (XOSA    ).                                   
A<RIAS                                                                          ==INCOG   (XOSAS   ).                                   
A<RIO                                                                           ==INCOG   (XOR     ).                                   
A<RIOS                                                                          ==INCOG   (XORES   ).                                   
A^                                                                              ==INCOG   (XORA    ).                                   
A^ES                                                                            ==INCOG   (XORES   ).                                   
A^O                                                                             ==INCOG   (XOR     ).                                   
A^S                                                                             ==INCOG   (XORAS   ).                                   
ADE                                                                             ==INCOG   (XADE    ).                                   
ADES                                                                            ==INCOG   (XADES   ).                                   
AGEM                                                                            ==INCOG   (XADE    ).                                   
AGENS                                                                           ==INCOG   (XADES   ).                                   
AIS                                                                             ==INCOG   (XAIS    ).                                   
AL                                                                              ==INCOG   (XAL     ).                                   
ANA                                                                             ==INCOG   (XOSA    ).                                   
ANAS                                                                            ==INCOG   (XOSAS   ).                                   
ANC5A                                                                           ==INCOG   (XADE    ).                                   
ANC5AS                                                                          ==INCOG   (XADES   ).                                   
ANO                                                                             ==INCOG   (XOSO    ).                                   
ANOS                                                                            ==INCOG   (XOSOS   ).                                   
ATO                                                                             ==INCOG   (XISMO   ).                                   
AVA                                                                             ==INCOG   (SV07    ).                                   
AVAM                                                                            ==INCOG   (SV11    ).                                   
A3NCIA                                                                          ==INCOG   (XADE    ).                                   
A3NCIAS                                                                         ==INCOG   (XADES   ).                                   
BEIS                                                                            ==INCOG   (SAVEIS  ).                                   
BIL                                                                             ==INCOG   (SAVEL   ).                                   
C5A^O                                                                           ==INCOG   (XCAO    ).                                   
C5A^OS                                                                          ==INCOG   (XCOES   ).                                   
C5O^ES                                                                          ==INCOG   (XCOES   ).                                   
DA                                                                              ==INCOG   (XADA    ).                                   
DA^O                                                                            ==INCOG   (XADE    ).                                   
DAS                                                                             ==INCOG   (XADAS   ).                                   
DO                                                                              ==INCOG   (XADO    ).                                   
DOS                                                                             ==INCOG   (XADOS   ).                                   
E<IA                                                                            ==INCOG   (XOSA    ).                                   
E<IAS                                                                           ==INCOG   (XOSAS   ).                                   
E<RIO                                                                           ==INCOG   (XISMO   ).                                   
E<RIOS                                                                          ==INCOG   (XISMOS  ).                                   
EI                                                                              ==INCOG   (XEI     ).                                   
EIRA                                                                            ==INCOG   (XADE    ).                                   
EIRAS                                                                           ==INCOG   (XADES   ).                                   
EIRO                                                                            ==INCOG   (XISMO   ).                                   
EIROS                                                                           ==INCOG   (XISMOS  ).                                   
ENSE                                                                            ==INCOG   (XENSE   ).                                   
ENSES                                                                           ==INCOG   (XENSES  ).                                   
ESA                                                                             ==INCOG   (XOSA    ).                                   
ESAS                                                                            ==INCOG   (XOSAS   ).                                   
ESES                                                                            ==INCOG   (XOSOS   ).                                   
EU                                                                              ==INCOG   (SV14    ).                                   
EZA                                                                             ==INCOG   (XURA    ).                                   
EZAS                                                                            ==INCOG   (XURAS   ).                                   
E3NCIA                                                                          ==INCOG   (XADE    ).                                   
E3NCIAS                                                                         ==INCOG   (XADES   ).                                   
E3S                                                                             ==INCOG   (XOSO    ).                                   
I<CIE                                                                           ==INCOG   (XADE    ).                                   
I<CIES                                                                          ==INCOG   (XADES   ).                                   
I<SSIMA                                                                         ==INCOG   (XSSIMA  ).                                   
I<SSIMAS                                                                        ==INCOG   (XSSIMAS ).                                   
I<SSIMO                                                                         ==INCOG   (XSSIMO  ).                                   
I<SSIMOS                                                                        ==INCOG   (XSSIMOS ).                                   
IAM                                                                             ==INCOG   (SV11    ).                                   
ICA                                                                             ==INCOG   (XOSA    ).                                   
ICAS                                                                            ==INCOG   (XOSAS   ).                                   
ICE                                                                             ==INCOG   (XADE    ).                                   
ICES                                                                            ==INCOG   (XADES   ).                                   
ICO                                                                             ==INCOG   (XOSO    ).                                   
ICOS                                                                            ==INCOG   (XOSOS   ).                                   
INA                                                                             ==INCOG   (XADE    ).                                   
INAS                                                                            ==INCOG   (XADES   ).                                   
INO                                                                             ==INCOG   (XISMO   ).                                   
INOS                                                                            ==INCOG   (XISMOS  ).                                   
IO                                                                              ==INCOG   (XISMO   ).                                   
IOS                                                                             ==INCOG   (XISMOS  ).                                   
ISMO                                                                            ==INCOG   (XISMO   ).                                   
ISTA                                                                            ==INCOG   (XISTA   ).                                   
ISTAS                                                                           ==INCOG   (XISTAS  ).                                   
ITE                                                                             ==INCOG   (XADE    ).                                   
IU                                                                              ==INCOG   (SV14    ).                                   
IVA                                                                             ==INCOG   (XOSA    ).                                   
IVAS                                                                            ==INCOG   (XOSAS   ).                                   
IVO                                                                             ==INCOG   (XOSO    ).                                   
IVOS                                                                            ==INCOG   (XOSOS   ).                                   
MENTE                                                                           ==INCOG   (SMENTE  ).                                   
MENTO                                                                           ==INCOG   (XMENTO  ).                                   
MENTOS                                                                          ==INCOG   (XMENTOS ).                                   
MOS                                                                             ==INCOG   (XMOS    ).                                   
NDO                                                                             ==INCOG   (SV48    ).                                   
NHA                                                                             ==INCOG   (XNHA    ).                                   
NHO                                                                             ==INCOG   (SV01    ).                                   
O^ES                                                                            ==INCOG   (XORES   ).                                   
OLO                                                                             ==INCOG   (XISMO   ).                                   
OR                                                                              ==INCOG   (XOR     ).                                   
ORA                                                                             ==INCOG   (XORA    ).                                   
ORAS                                                                            ==INCOG   (XORAS   ).                                   
ORES                                                                            ==INCOG   (XORES   ).                                   
OSA                                                                             ==INCOG   (XOSA    ).                                   
OSAS                                                                            ==INCOG   (XOSAS   ).                                   
OSE                                                                             ==INCOG   (XADE    ).                                   
OSO                                                                             ==INCOG   (XOSO    ).                                   
OSOS                                                                            ==INCOG   (XOSOS   ).                                   
OU                                                                              ==INCOG   (SV14    ).                                   
R                                                                               ==INCOG   (SV43    ).                                   
RA<                                                                             ==INCOG   (SV24    ).                                   
RA^O                                                                            ==INCOG   (SV27    ).                                   
RAM                                                                             ==INCOG   (SV16    ).                                   
REM                                                                             ==INCOG   (SV47    ).                                   
SA^O                                                                            ==INCOG   (XADE    ).                                   
SIMA                                                                            ==INCOG   (SORD2   ).                                   
SIMAS                                                                           ==INCOG   (SORD4   ).                                   
SIMO                                                                            ==INCOG   (SORD1   ).                                   
SIMOS                                                                           ==INCOG   (SORD3   ).                                   
SO^ES                                                                           ==INCOG   (XADES   ).                                   
SSE                                                                             ==INCOG   (SV38    ).                                   
SSEM                                                                            ==INCOG   (SV42    ).                                   
UDE                                                                             ==INCOG   (XADE    ).                                   
UDES                                                                            ==INCOG   (XADES   ).                                   
ULA                                                                             ==INCOG   (XADE    ).                                   
ULAS                                                                            ==INCOG   (XADES   ).                                   
ULO                                                                             ==INCOG   (XISMO   ).                                   
ULOS                                                                            ==INCOG   (XISMOS  ).                                   
URA                                                                             ==INCOG   (XURA    ).                                   
URAS                                                                            ==INCOG   (XURAS   ).                                   
VE                                                                              ==INCOG   (SV14    ).                                   
VEIS                                                                            ==INCOG   (SAVEIS  ).                                   
VEL                                                                             ==INCOG   (SAVEL   ).                                   
