·                                                                              ==FINPH2  (PONC    ,·                       ).
<SEG>                                                                           ==FINPH1  (PONC    ,<seg>                   ).
</SEG>                                                                          ==FINPH2  (PONC    ,</seg>                  ).
<P>                                                                             ==FINPH1  (PONC    ,<p>                   ).
</P>                                                                            ==FINPH2  (PONC    ,</p>                  ).
<H1>                                                                            ==FINPH1  (PONC    ,<h1>                   ).
</H1>                                                                           ==FINPH2  (PONC    ,</h1>                  ).
<H2>                                                                            ==FINPH1  (PONC    ,<h2>                   ).
</H2>                                                                           ==FINPH2  (PONC    ,</h2>                  ).
<H3>                                                                            ==FINPH1  (PONC    ,<h3>                   ).
</H3>                                                                           ==FINPH2  (PONC    ,</h3>                  ).
=                                                                               ==FINVAUT (PONC    ,=                       ).
-                                                                               ==MCPA1   (PONC    ,-                       ).
-                                                                               ==SUFINAL (PONC    ,-                       ).
,                                                                               ==VIRG    (PONC    ,,                       ).
;                                                                               ==PVIRG   (PONC    ,;                       ).
:                                                                               ==P2POINTS(PONC    ,:                       ).
!                                                                               ==FINPH2  (PONC    ,!                       ).
?                                                                               ==FINPH2  (PONC    ,?                       ).
.                                                                               ==FINPH   (PONC    ,.                       ).
"                                                                               ==PG      (PONCG   ,"                       ).
(                                                                               ==PG      (PONCG   ,(                       ).
)                                                                               ==INV     (PONCD   ,-!                      ).
*                                                                               ==PFX4    (FSPM    ,MAJUSCULE               ).
*ABFAHREN                                                                       ==FTP2    (VID     ,UL0                     ).
*AUSNAHME                                                                       ==FTP1    (VID     ,UL0                     ).
*B.                                                                             ==FTP1    (VID     ,UL0                     ).
*B.                                                                             ==FTP2    (VID     ,UL0                     ).
*BEISPIEL                                                                       ==FTP1    (VID     ,UL0                     ).
*BEISPIEL                                                                       ==FTP2    (VID     ,UL0                     ).
*BELIEBEN                                                                       ==FTP1    (VIDE    ,UL0                     ).
*GRUND                                                                          ==FTP1    (VID     ,UL0                     ).
*GRUNDE                                                                         ==FTP1    (VID     ,UL0                     ).
*LINIE                                                                          ==FTP2    (VID     ,UL0                     ).
*REDE                                                                           ==FTP3    (VID     ,UL0                     ).
*REGEL                                                                          ==FTP2    (VID     ,UL0                     ).
*UNGEACHTET                                                                     ==FTP0    (VID     ,UL0                     ).
*VORAUSGESETZT                                                                  ==FTP0    (VID     ,UL0                     ).
*ZUGE                                                                           ==FTP1    (VID     ,UL0                     ).
*ZUKUNFT                                                                        ==FTP1    (VID     ,UL0                     ).
0                                                                               ==CHIFFRE (VID     ,UL0                     ).
1                                                                               ==CHIFFRE (VID     ,UL0                     ).
2                                                                               ==CHIFFRE (VID     ,UL0                     ).
3                                                                               ==CHIFFRE (VID     ,UL0                     ).
4                                                                               ==CHIFFRE (VID     ,UL0                     ).
5                                                                               ==CHIFFRE (VID     ,UL0                     ).
6                                                                               ==CHIFFRE (VID     ,UL0                     ).
7                                                                               ==CHIFFRE (VID     ,UL0                     ).
8                                                                               ==CHIFFRE (VID     ,UL0                     ).
9                                                                               ==CHIFFRE (VID     ,UL0                     ).
AB                                                                              ==PP14    (V2D     ,AB                      ).
ABER                                                                            ==COOR    (VID     ,aber                    ).
ABSEITS                                                                         ==P1      (V2G     ,abseits                 ).
ABSEITS                                                                         ==P1      (V4G     ,abseits                 ).
ACHT                                                                            ==AZWEI   (VIDE    ,acht                    ).
ACHTUNDACHZIG                                                                   ==AZWEI   (VIDE    ,achtundachzig           ).
ACHTUNDDREIS!5IG                                                                ==AZWEI   (VIDE    ,achtunddreißig          ).
ACHTUNDNEUNZIG                                                                  ==AZWEI   (VIDE    ,achtundneunzig          ).
ACHTUNDSECHZIG                                                                  ==AZWEI   (VIDE    ,achtundsechzig          ).
ACHTUNDSIEBZIG                                                                  ==AZWEI   (VIDE    ,achtundsiebzig          ).
ACHTUNDVIERZIG                                                                  ==AZWEI   (VIDE    ,achtundvierzig          ).
ACHTUNDZWANZIG                                                                  ==AZWEI   (VIDE    ,achtundzwanzig          ).
ACHTZIG                                                                         ==AZWEI   (VIDE    ,achtzig                 ).
ALL                                                                             ==DEFRP   (FSALL   ,all                     ).
ALLE                                                                            ==DEFRP   (AEFRT3S ,all                     ).
ALLEM                                                                           ==DEFRP   (AEM3S   ,all                     ).
ALLEM                                                                           ==FTP1    (VIDE    ,UL0                     ).
ALLEN                                                                           ==DEFRP   (FSALLEN ,all                     ).
ALLER                                                                           ==DEFRP   (AER     ,all                     ).
ALLES                                                                           ==DEFRP   (DASDES  ,all                     ).
ALS                                                                             ==CJP1    (V21AS   ,als                     ).
AM                                                                              ==P13     (FSAM    ,an                      ).
AN                                                                              ==PP14    (3A4A    ,an                      ).
ANDERE                                                                          ==APR     (AE      ,ander                   ).
ANDEREM                                                                         ==APR     (AEM     ,ander                   ).
ANDEREN                                                                         ==APR     (AEN     ,ander                   ).
ANDERER                                                                         ==APR     (AER     ,ander                   ).
ANDERES                                                                         ==APR     (AES     ,ander                   ).
ANS                                                                             ==P13     (FSANS   ,an                      ).
AUCH                                                                            ==FTP1    (VIDE    ,UL0                     ).
AUCH                                                                            ==ISOL    (VID     ,auch                    ).
AUF                                                                             ==PP134   (5A6A    ,auf                     ).
AUFGRUND                                                                        ==P1      (V2G     ,aufgrund                ).
AUFS                                                                            ==P13     (FSAUFS  ,auf                     ).
AUS                                                                             ==PP13    (AUSD    ,aus                     ).
AUSSER                                                                          ==P1      (V2D     ,ausser                  ).
AUSSERHALB                                                                      ==P1RADIP (V2G     ,ausserhalb-prep/adv         ).
AUS!5ERHALB                                                                     ==P1RADIP (V2G     ,ausserhalb-prep/adv         ).
BEI                                                                             ==PP1     (BEID    ,bei                     ).
BEIDE                                                                           ==APR     (FSBEIDE ,beide                   ).
BEIDEN                                                                          ==APR     (FSBEIDEN,beide                   ).
BEIDER                                                                          ==APR     (FSBEIDER,beide                   ).
BEIDERSEITS                                                                     ==P1      (V4G     ,beiderseits             ).
BEIDES                                                                          ==APR     (AES     ,beide                   ).
BEIDSEITS                                                                       ==P1      (V4G     ,beidseits               ).
BEIM                                                                            ==P1      (FSBEIM  ,bei                     ).
BELIES                                                                          ==FGIB    (VERBE   ,belesen-v               ).
BERGSEITS                                                                       ==P1      (V4G     ,bergseits               ).
BEVOR                                                                           ==CJ      (V3SUBL  ,bevor                   ).
BEZU!4GLICH                                                                     ==P1      (V2G     ,bezüglich               ).
BINNEN                                                                          ==P1      (V2GD    ,binnen                  ).
BIS                                                                             ==CJP1    (*       ,bis                     ).
BIS                                                                             01 V2A / RS-E-LOCAL.                          
BZW.                                                                            ==COOR    (*       ,beziehungsweise         ).
BZW.                                                                            01 TABB / TOURN-E-TENC .                      
D.                                                                              ==FINVAUT (VID     ,der                     ).
DA                                                                              ==CJDAD   (V3SUB   ,da                      ).
DABEI                                                                           ==DAPREP  (FSDABEI ,dabei                   ).
DAFU!4R                                                                         ==DAPREP  (FSDAFUER,dafür                   ).
DAMIT                                                                           ==DAPREP  (FSDAMIT ,damit                   ).
DANK                                                                            ==P1      (V2GD    ,dank                    ).
DANN                                                                            ==ISOL    (VID     ,dann                    ).
DARAN                                                                           ==DAPREP  (FSDARAN ,daran                   ).
DARAUS                                                                          ==DAPREP  (FSDARAUS,daraus                  ).
DARIN                                                                           ==DAPREP  (FSDARIN ,darin                   ).
DARU!4BER                                                                       ==DAPREP  (FSDARUEB,darüber                 ).
DARUM                                                                           ==DAPREP  (FSDARUM ,darum                   ).
DAS                                                                             ==RSTRLRP (*       ,der                     ).
DAS                                                                             01 AES3S / GNR-E-N.                           
DAS!5                                                                           ==CJ      (V3SUB   ,dass                    ).
DAS!5                                                                           ==FTP1    (VIDE    ,UL0                     ).
DASS                                                                            ==CJ      (V3SUB   ,dass                    ).
DASS                                                                            ==FTP1    (VIDE    ,UL0                     ).
DAVON                                                                           ==DAPREP  (FSDAVON ,davon                   ).
DAVOR                                                                           ==DAPREP  (FSDAVOR ,davor                   ).
DAZU                                                                            ==DAPREP  (FSDAZU  ,dazu                    ).
DEIN                                                                            ==DEF     (FSEIN   ,dein                    ).
DEINE                                                                           ==DEFRP   (AE3SP   ,dein                    ).
DEINEM                                                                          ==DEFRP   (AEM3S   ,dein                    ).
DEINEN                                                                          ==DEFRP   (AEN3SP  ,dein                    ).
DEINER                                                                          ==DEFRP   (AER3SP  ,dein                    ).
DEINER                                                                          ==PRS     (DUGEN   ,du                      ).
DEINES                                                                          ==DEFRP   (DASDES  ,dein                    ).
DEM                                                                             ==RSTRLRP (*       ,der                     ).
DEM                                                                             01 AEM3S / GNR-E-M-U-N.                       
DEN                                                                             ==RSTRLRP (*       ,der                     ).
DEN                                                                             01 FSDEN3S / GNR-E-M.                         
DENEN                                                                           ==RSTRLRP (FSDENEN ,der                     ).
DENJENIGEN                                                                      ==RSTRPM  (FSDEN3SP,derjenige               ).
DENN                                                                            ==COOR    (VID     ,denn                    ).
DER                                                                             ==RSTRLRP (*       ,der                     ).
DER                                                                             01 AER3S / GNR-E-M-U-F.                       
DERARTIGE                                                                       ==APR     (AE      ,derartig                ).
DERARTIGEM                                                                      ==APR     (AEM     ,derartig                ).
DERARTIGEN                                                                      ==APR     (AEN     ,derartig                ).
DERARTIGER                                                                      ==APR     (AER     ,derartig                ).
DERARTIGES                                                                      ==APR     (AES     ,derartig                ).
DEREN                                                                           ==RSTRP   (FSDESSEN,deren                   ).
DERER                                                                           ==RSTRP   (FSDERER ,derer                   ).
DES                                                                             ==RST     (FSDES   ,der                     ).
DESSEN                                                                          ==RSTRP   (FSDESSEN,dessen                  ).
DICH                                                                            ==PRS     (DUACC   ,du                      ).
DIE                                                                             ==RSTRLRP (*       ,der                     ).
DIE                                                                             01 AEFRT3SP / GNR-E-F.                        
DIES                                                                            ==RSTRP   (FSDIES  ,dieser                  ).
DIESE                                                                           ==RSTRP   (AEFRT3SP,dieser                  ).
DIESEM                                                                          ==RSTRP   (AEM3S   ,dieser                  ).
DIESEN                                                                          ==RSTRP   (FSDEN3SP,dieser                  ).
DIESER                                                                          ==RSTRP   (AER3SP  ,dieser                  ).
DIESES                                                                          ==RSTRP   (DASDES  ,dieser                  ).
DIESSEITS                                                                       ==P1      (V2G     ,diesseits               ).
DIESSEITS                                                                       ==P1      (V4G     ,diesseits               ).
DIR                                                                             ==PRS     (DUDAT   ,du                      ).
DORT                                                                            ==DADO    (VIDE    ,dort                    ).
DREI                                                                            ==AZWEI   (VIDE    ,drei                    ).
DREIS!5IG                                                                       ==AZWEI   (VIDE    ,dreißig               ).
DREIUNDZWANZIG                                                                  ==AZWEI   (VIDE    ,dreiundzwanzig          ).
DRIT                                                                            ==AZWEI   (ORDINAL ,drei                    ).
DU                                                                              ==PRS     (DUNOM   ,du                      ).
DURCH                                                                           ==PP123   (DURA    ,durch                   ).
DURCHS                                                                          ==P13     (FSDURCHS,durch                   ).
EHE                                                                             ==CJ      (*       ,ehe                     ).
EHE                                                                             01 V3SUB / RS-E-LOCAL.                        
EIN                                                                             ==FMEIN   (FSEIN   ,ein                     ).
EINE                                                                            ==DEFRP   (FSEINE  ,ein                     ).
EINEM                                                                           ==DEFRP   (AEM3S   ,ein                     ).
EINEN                                                                           ==DEFRP   (FSEINEN ,ein                     ).
EINEN                                                                           ==FTP1    (VIDE    ,ul0                     ).
EINER                                                                           ==DEFRP   (FSEINER ,ein                     ).
EINER                                                                           ==MMEISTER(BNIP    ,*einer                  ).
EINES                                                                           ==DEFRP   (DASDES  ,ein                     ).
EINIGE                                                                          ==APR     (AE      ,einig                   ).
EINIGEM                                                                         ==APR     (AEM     ,einig                   ).
EINIGEN                                                                         ==APR     (AEN     ,einig                   ).
EINIGER                                                                         ==APR     (AER     ,einig                   ).
EINIGES                                                                         ==APR     (AES     ,einig                   ).
EINUNDZWANZIG                                                                   ==AZWEI   (VIDE    ,einundzwanzig           ).
ELF                                                                             ==AZWEI   (VIDE    ,elf                     ).
ENTGEGEN                                                                        ==PP12    (V2D     ,entgegen                ).
ENTLANG                                                                         ==P12     (23      ,entlang                 ).
ENTWEDER                                                                        ==COP     (*       ,entweder                ).
ENTWEDER                                                                        01 VIDE / SUBCOP-E-COCOU.                     
ER                                                                              ==PRS     (ERNOM   ,er                      ).
ERS                                                                             ==AZWEI   (VID     ,eins                    ).
ES                                                                              ==PRS     (ESNOMACC,es                      ).
ETWAS                                                                           ==RP      (FSETWAS ,etwas                   ).
EUCH                                                                            ==PRS     (FSEUCH  ,ihr                     ).
EUER                                                                            ==PRS     (IHRGEN  ,ihr                     ).
FU!4NF                                                                          ==AZWEI   (VIDE    ,fünf                    ).
FU!4NFUNDZWANZIG                                                                ==AZWEI   (VIDE    ,fünfundzwanzig          ).
FU!4NFZIG                                                                       ==AZWEI   (VIDE    ,fünfzig                 ).
FU!4R                                                                           ==P1      (FUERA   ,für                     ).
FU!4RS                                                                          ==P13     (FSFUERS ,für                     ).
FUFFZIG                                                                         ==AZWEI   (VIDE    ,fuffzig                 ).
GEGEN                                                                           ==PP13    (V2A     ,gegen                   ).
GEGENU!4BER                                                                     ==PP12    (V2D     ,gegenüber               ).
GEMA!4SS                                                                        ==P12     (V2D     ,gemäss                  ).
H.                                                                              ==FTP1    (VID     ,UL0                     ).
HERAUS                                                                          ==PP4     (VID     ,heraus                  ).
HERUM                                                                           ==PP4     (VID     ,herum                   ).
HIERAN                                                                          ==DAPREP  (FSDARAN ,hieran                  ).
HINSICHTLICH                                                                    ==P1      (V2G     ,hinsichtlich            ).
HINTER                                                                          ==PP13    (1H2H    ,hinter                  ).
HINTERS                                                                         ==P13     (FSHINTRS,hinter                  ).
ICH                                                                             ==PRS     (ICHNOM  ,ich                     ).
IHM                                                                             ==PRS     (ERESDAT ,er/es                   ).
IHN                                                                             ==PRS     (ERACC   ,er                      ).
IHNEN                                                                           ==PRS     (SIEDATP ,sie                     ).
*IHNEN                                                                          ==PRS0    (SIEDATP ,Sie                     ).
*SIE                                                                            ==PRS0    (SIE2NOMA,Sie                     ).
IHR                                                                             ==DEFPRS  (FSIHR   ,ihr                     ).
IHR                                                                             ==PRS     (SIEDATS ,sie                     ).
IHR                                                                             ==DEF     (FSEIN   ,ihr-poss                ).
IHRE                                                                            ==DEFRP   (AE3SP   ,ihr-poss                ).
IHREM                                                                           ==DEFRP   (AEM3S   ,ihr-poss                ).
IHREN                                                                           ==DEFRP   (AEN3SP  ,ihr-poss                ).
IHRER                                                                           ==DEFRP   (AER3SP  ,ihr-poss                ).
IHRER                                                                           ==PRS     (SIEGEN  ,sie                     ).
IHRES                                                                           ==DEFRP   (DASDES  ,ihr-poss                ).
*IHR                                                                            ==DEF0    (FSEIN   ,Ihr-poss                ).
*IHRE                                                                           ==DEFRP0  (AE3SP   ,Ihr-poss                ).
*IHREM                                                                          ==DEFRP0  (AEM3S   ,Ihr-poss                ).
*IHREN                                                                          ==DEFRP0  (AEN3SP  ,Ihr-poss                ).
*IHRER                                                                          ==DEFRP0  (AER3SP  ,Ihr-poss                ).
*IHRER                                                                          ==PRS0    (SIEGEN  ,Sie                     ).
*IHRES                                                                          ==DEFRP0  (DASDES  ,Ihr-poss                ).
IM                                                                              ==P1      (FSIM    ,in                      ).
IN                                                                              ==P13     (1I2I    ,in                      ).
INDEM                                                                           ==CJ      (V3SUB   ,indem                   ).
INFOLGE                                                                         ==P1      (V2G     ,infolge                 ).
INMITTEN                                                                        ==P1      (V2G     ,inmitten                ).
INNERHALB                                                                       ==P1RADIP (V2G     ,innerhalb-prep/adv         ).
ZUGUNSTEN                                                                       ==P1RADIP (V2G     ,zugunsten-prep/adv         ).
INS                                                                             ==P13     (FSINS   ,in                      ).
INSOWEIT                                                                        ==CJ      (V3SUB   ,insoweit                ).
JEDE                                                                            ==RSTRP   (FSJEDE  ,jeder                   ).
JEDEM                                                                           ==RSTRP   (AEM3S   ,jeder                   ).
JEDEN                                                                           ==RSTRP   (FSJEDEN ,jeder                   ).
JEDER                                                                           ==RSTRP   (FSEINER ,jeder                   ).
JEDES                                                                           ==RSTRP   (DASDES  ,jeder                   ).
JEDOCH                                                                          ==ISOL    (VID     ,jedoch                  ).
JENE                                                                            ==RSTRP   (AEFRT3SP,jener                   ).
JENEM                                                                           ==RSTRP   (AEM3S   ,jener                   ).
JENEN                                                                           ==RSTRP   (FSDEN3SP,jener                   ).
JENER                                                                           ==RSTRP   (AER3SP  ,jener                   ).
JENES                                                                           ==RSTRP   (DASDES  ,jener                   ).
JENSEITS                                                                        ==P1      (V4G     ,jenseits                ).
KEIN                                                                            ==FMEIN   (FSEIN   ,kein                    ).
KEINE                                                                           ==DEFRP   (AE3SP   ,kein                    ).
KEINEM                                                                          ==DEFRP   (AEM3S   ,kein                    ).
KEINER                                                                          ==DEFRP   (FSEINER ,kein                    ).
KEINES                                                                          ==DEFRP   (DASDES  ,kein                    ).
LA!4NGSSEITS                                                                    ==P1      (V4G     ,längsseits              ).
LETZTER                                                                         ==AZWEI   (VID     ,letzter                 ).
MAN                                                                             ==PRS     (FSER    ,man                     ).
MANCH                                                                           ==DEF     (FSMANCH ,manch                   ).
MANCHE                                                                          ==DEFRP   (AEFRT3SP,manch                   ).
MANCHEM                                                                         ==DEFRP   (AEM3S   ,manch                   ).
MANCHEN                                                                         ==DEFRP   (AENFT3SP,manch                   ).
MANCHER                                                                         ==DEFRP   (AER3SP  ,manch                   ).
MANCHES                                                                         ==DEFRP   (DASDES  ,manch                   ).
MEHRERE                                                                         ==APR     (FSBEIDE ,mehrere                 ).
MEHREREN                                                                        ==APR     (FSMHRREN,mehrere                 ).
MEHRERER                                                                        ==APR     (FSBEIDER,mehrere                 ).
MEIN                                                                            ==DEF     (FSEIN   ,mein                    ).
MEINE                                                                           ==DEFRP   (AE3SP   ,mein                    ).
MEINEM                                                                          ==DEFRP   (AEM3S   ,mein                    ).
MEINEN                                                                          ==DEFRP   (AEN3SP  ,mein                    ).
MEINER                                                                          ==DEFRP   (AER3SP  ,mein                    ).
MEINER                                                                          ==PRS     (ICHGEN  ,ich                     ).
MEINES                                                                          ==DEFRP   (DASDES  ,mein                    ).
MICH                                                                            ==PRS     (ICHACC  ,ich                     ).
MIR                                                                             ==PRS     (ICHDAT  ,ich                     ).
MIT                                                                             ==PP13    (MITD    ,mit                     ).
MOMENT                                                                          ==FTP1    (VID     ,UL0                     ).
NACH                                                                            ==FTP1    (VID     ,UL0                     ).
NACH                                                                            ==PP12    (NACHD   ,nach                    ).
PRO                                                                             ==P1      (PROPREP ,pro_Präp                ).
NACHDEM                                                                         ==CJ      (*       ,nachdem                 ).
NACHDEM                                                                         01 V3SUB / RS-E-LOCAL.                        
NEBEN                                                                           ==P1      (V2AD    ,neben                   ).
NEUN                                                                            ==AZWEI   (VIDE    ,neun                    ).
NEUNUNDZWANZIG                                                                  ==AZWEI   (VIDE    ,neunundzwanzig          ).
NEUNZIG                                                                         ==AZWEI   (VIDE    ,neunzig                 ).
NICHTS                                                                          ==RP      (FSNICHTS,nichts                  ).
NUR                                                                             ==FTP1    (VIDE    ,UL0                     ).
OB                                                                              ==CJ      (V3SUB   ,OB                      ).
OBGLEICH                                                                        ==CJ      (*       ,obgleich                ).
OBGLEICH                                                                        01 V3SUB / RS-E-CONCES.                       
OBWOHL                                                                          ==CJ      (*       ,obwohl                  ).
OBWOHL                                                                          01 V3SUB / RS-E-CONCES.                       
TROTZDEM                                                                        ==CJ      (*       ,trotzdem-cjs            ).
TROTZDEM                                                                        01 V3SUB / RS-E-CONCES.                       
GLEICHWOHL                                                                      ==CJ      (*       ,gleichwohl              ).
GLEICHWOHL                                                                      01 V3SUB / RS-E-CONCES.                       
ODER                                                                            ==COP     (*       ,oder                    ).
ODER                                                                            01 VIDE / SUBCOP-E-COCOU.                     
OHNE                                                                            ==COP     (*       ,ohne                    ).
OHNE                                                                            01 2Z / POS-E-1.                              
SA!4MTLICHE                                                                     ==RSTRP   (AE3SP   ,sämtlich                ).
SA!4MTLICHEM                                                                    ==RST     (AEM3S   ,sämtlich                ).
SA!4MTLICHEN                                                                    ==RSTRP   (AEN3SP  ,sämtlich                ).
SA!4MTLICHER                                                                    ==RST     (AER3SP  ,sämtlich                ).
SA!4MTLICHES                                                                    ==RST     (AES3S   ,sämtlich                ).
SECHS                                                                           ==AZWEI   (VIDE    ,sechs                   ).
SECHSUNDZWANZIG                                                                 ==AZWEI   (VIDE    ,sechsundzwanzig         ).
SECHZIG                                                                         ==AZWEI   (VIDE    ,sechzig                 ).
SEI                                                                             ==FTP0    (VID     ,UL0                     ).
SEIN                                                                            ==DEF     (FSEIN   ,sein                    ).
SEINE                                                                           ==DEFRP   (AE3SP   ,sein                    ).
SEINEM                                                                          ==DEFRP   (AEM3S   ,sein                    ).
SEINEN                                                                          ==DEFRP   (AEN3SP  ,sein                    ).
SEINER                                                                          ==DEFRP   (AER3SP  ,sein                    ).
SEINER                                                                          ==PRS     (ERESGEN ,er/es                   ).
SEINES                                                                          ==DEFRP   (DASDES  ,sein                    ).
SEIT                                                                            ==CJP1    (*       ,seit                    ).
SEIT                                                                            01 V2D / RS-E-LOCAL.                          
SEITDEM                                                                         ==CJ      (*       ,seitdem                 ).
SEITDEM                                                                         01 V3SUB / RS-E-LOCAL.                        
SEITWA!4RTS                                                                     ==P1      (V2G     ,seitwärts               ).
SICH                                                                            ==PRS     (FSSICH  ,sich                    ).
SIE                                                                             ==PRS     (SIENOMAC,sie                     ).
SIEBEN                                                                          ==AZWEI   (VIDE    ,sieben                  ).
SIEBENUNDSIEBZIG                                                                ==AZWEI   (VIDE    ,siebenundsiebzig        ).
SIEBZIG                                                                         ==AZWEI   (VIDE    ,siebzig                 ).
SOBALD                                                                          ==CJ      (V3SUB   ,sobald                  ).
SOLANG                                                                          ==CJ      (*       ,solange                 ).
SOLANG                                                                          01 V3SUB / RS-E-LOCAL.                        
SOLANGE                                                                         ==CJ      (*       ,solange                 ).
SOLANGE                                                                         01 V3SUB / RS-E-LOCAL.                        
SOLCHE                                                                          ==APR     (AE      ,solch                   ).
SOLCHEM                                                                         ==APR     (AEM     ,solch                   ).
SOLCHEN                                                                         ==APR     (AEN     ,solch                   ).
SOLCHER                                                                         ==APR     (AER     ,solch                   ).
SOLCHES                                                                         ==APR     (AES     ,solch                   ).
SONDERN                                                                         ==COOR    (VID     ,sondern                 ).
SOWEIT                                                                          ==CJ      (V3SUB   ,soweit                  ).
SOWIE                                                                           ==COOR    (VID     ,sowie                   ).
SOWOHL                                                                          ==COP     (*       ,sowohl                  ).
SOWOHL                                                                          01 VIDE / SUBCOP-E-COCOU.                     
STETS                                                                           ==ISOL    (VIDE    ,stets                   ).
TROTZ                                                                           ==P1      (34      ,trotz                   ).
U!4BER                                                                          ==1PP13   (1U2U    ,über                  ).
U!4BER                                                                          ==PP13    (1U2U    ,über                    ).
UEBERS                                                                          ==P13     (FSUEBERS,über                    ).
UM                                                                              ==COP     (*       ,um                      ).
UM                                                                              01 3UZ /POS-E-1-U-3.                          
UND                                                                             ==COOR    (VID     ,und                     ).
UNGEACHTET                                                                      ==FTP0    (VID     ,UL0                     ).
UNS                                                                             ==PRS     (FSUNS   ,wir                     ).
UNSER                                                                           ==DEF     (FSEIN   ,unser                   ).
UNSER                                                                           ==PRS     (WIRGEN  ,wir                     ).
UNSERE                                                                          ==DEFRP   (AE3SP   ,unser                   ).
UNSEREM                                                                         ==DEFRP   (AEM3S   ,unser                   ).
UNSEREN                                                                         ==DEFRP   (AEN3SP  ,unser                   ).
UNSERER                                                                         ==DEFRP   (AER3SP  ,unser                   ).
UNSERES                                                                         ==DEFRP   (DASDES  ,unser                   ).
UNTER                                                                           ==PP1     (4U5U    ,unter                   ).
UNTERS                                                                          ==P13     (FSUNTERS,unter                   ).
UNWEIT                                                                          ==P1      (V4G     ,unweit                  ).
VIEL                                                                            ==FMVIEL2 (FSALL   ,viel                    ).
VIELE                                                                           ==APR     (AE      ,viel                    ).
VIELEM                                                                          ==APR     (AEM     ,viel                    ).
VIELEN                                                                          ==APR     (AEN     ,viel                    ).
VIELER                                                                          ==APR     (AER     ,viel                    ).
VIELES                                                                          ==APR     (AES     ,viel                    ).
VIER                                                                            ==AZWEI   (VIDE    ,vier                    ).
VIERUNDZWANZIG                                                                  ==AZWEI   (VIDE    ,vierundzwanzig          ).
VIERZIG                                                                         ==AZWEI   (VIDE    ,vierzig                 ).
VOM                                                                             ==P13     (FSVOM   ,von                     ).
VON                                                                             ==P13     (VOND    ,von                     ).
VOR                                                                             ==PP1     (2V3V    ,vor                     ).
VORNHEREIN                                                                      ==FTP1    (VID     ,ul0                     ).
VORAUSGESETZT                                                                   ==FTP0    (VID     ,ul0                     ).
VORBEHA!4LTLICH                                                                 ==P1      (V2G     ,vorbehältlich           ).
VORBEHALTLICH                                                                   ==P1      (V2G     ,vorbehaltlich           ).
VORS                                                                            ==P13     (FSVORS  ,vor                     ).
W.                                                                              ==FTP2    (VID     ,ul0                     ).
WA!4HREND                                                                       ==CJP1    (V2DGS   ,während                 ).
AUS!5ER                                                                         ==CJP1    (V2DGS   ,außer-prep/conj               ).
WANN                                                                            ==RELINT  (LOCAL   ,wann                    ).
WARUM                                                                           ==RELINT  (LOCAL   ,warum                    ).
WAS                                                                             ==RELINT  (FSWAS   ,was                     ).
WEDER                                                                           ==COP     (*       ,weder                   ).
WEDER                                                                           01 VIDE / SUBCOP-E-COCOU.                     
WEGEN                                                                           ==P12     (V2G     ,wegen                   ).
WEIL                                                                            ==CJ      (*       ,weil                    ).
WEIL                                                                            01 V3SUB / RS-E-CAUSE.                        
WEITAB                                                                          ==P1      (V4G     ,weitab                  ).
WELCH                                                                           ==DFRLINT (FSALL   ,welch                   ).
WELCHE                                                                          ==DFRLINT (*       ,welch                   ).
WELCHE                                                                          01 AEFRT3SP / GNR-E-F.                        
WELCHEM                                                                         ==DFRLINT (*       ,welch                   ).
WELCHEM                                                                         01 AEM3S / GNR-E-M-U-N.                       
WELCHEN                                                                         ==DFRLINT (*       ,welch                   ).
WELCHEN                                                                         01 AENFT3SP / GNR-E-M.                        
WELCHER                                                                         ==DFRLINT (*       ,welch                   ).
WELCHER                                                                         01 AER3SP / GNR-E-M-U-F.                      
WELCHES                                                                         ==DFRLINT (*       ,welch                   ).
WELCHES                                                                         01 DASDES / GNR-E-N.                          
WEM                                                                             ==RELINT  (FSWEM   ,wem                     ).
WEN                                                                             ==RELINT  (FSWEN   ,wen                     ).
WENIG                                                                           ==FMVIEL2 (FSALL   ,wenig                   ).
WENIGE                                                                          ==APR     (AE      ,wenig                   ).
WENIGEM                                                                         ==APR     (AEM     ,wenig                   ).
WENIGEN                                                                         ==APR     (AEN     ,wenig                   ).
WENIGER                                                                         ==APRRAD  (*       ,wenig                   ).
WENIGER                                                                         01 AER / IC-E-1-U-2,DEG-E-CP.                 
WENIGES                                                                         ==APR     (AES     ,wenig                   ).
WENN                                                                            ==CJ      (V3SUB   ,wenn                    ).
WENN                                                                            ==FTP1    (VIDE    ,UL0                     ).
WER                                                                             ==RELINT  (FSWER   ,wer                     ).
WESENTLICHEN                                                                    ==FTP1    (VIDE    ,UL0                     ).
WIE                                                                             ==CJP1    (V21WS   ,wie                     ).
GLEICHWIE                                                                       ==CJP1    (V21WS   ,gleichwie               ).
WIEWEIT                                                                         ==CJ      (V3SUB   ,wieweit                 ).
WIR                                                                             ==PRS     (FSWIR   ,wir                     ).
WO                                                                              ==RELINT  (LOCAL   ,wo                      ).
Z.                                                                              ==FINVAUT (VID     ,zu                      ).
ZEHN                                                                            ==AZWEI   (VIDE    ,zehn                    ).
ZIG                                                                             ==AZWEI   (VIDE    ,zig                     ).
ZU                                                                              ==FTP1    (VID     ,UL0                     ).
ZU                                                                              ==PP14    (ZUD     ,zu                      ).
ZUM                                                                             ==FTP1    (VID     ,UL0                     ).
ZUM                                                                             ==P13     (FSZUM   ,zu                      ).
ZUR                                                                             ==FTP1    (VID     ,UL0                     ).
ZUR                                                                             ==P1      (FSZUR   ,ZU                      ).
ZUZU!4GLICH                                                                     ==P1      (V2G     ,zuzüglich             ).
ZWANZIG                                                                         ==AZWEI   (VIDE    ,zwanzig                 ).
ZWAR                                                                            ==FTP1    (VID     ,UL0                     ).
ZWEI                                                                            ==AZWEI   (VID     ,zwei                    ).
ZWEIUNDZWANZIG                                                                  ==AZWEI   (VIDE    ,zweiundzwanzig          ).
ZWISCHEN                                                                        ==P1      (2Z3Z    ,zwischen                ).
ZWO!4LF                                                                         ==AZWEI   (VIDE    ,zwölf                 ).
WORAN                                                                           ==WOPREP  (FSDARAN ,woran                   ).
WOBEI                                                                           ==WOPREP  (FSDABEI ,wobei                   ).
