ABREV   01==TYPOG-E-
ABREV   02  ABREV.
ADJ     01==SUBA-E-ADJ-OU-SUBA-E-ADV-OU-SUBA-E-ADDEICT-OU-SUBA-E-ADVN-OU-
ADJ     02  SUBA-E-ADADJ-OU-SUBA-E-ADADV-OU-SUBA-E-ADCL-OU-CAT-E-D.
ADJFADV 01==SUBA-E-ADJ-ET-GNR-E-FEM-OU-
ADJFADV 02  SUBA-E-ADV-OU-SUBA-E-ADDEICT-OU-SUBA-E-ADVN-OU-
ADJFADV 03  SUBA-E-ADADJ-OU-SUBA-E-ADADV-OU-SUBA-E-ADCL-OU-
ADJFADV 04  CAT-E-D-ET-GNR-E-FEM-OU-POTDRV-E-AM.
ADJFEM  01==SUBA-E-ADJ-ET-GNR-E-FEM-OU-
ADJFEM  02  CAT-E-D-ET-GNR-E-FEM.
ADJFEMP 01==SUBA-E-ADJ-ET-GNR-E-FEM-ET-NUM-E-PLU-OU-
ADJFEMP 02  CAT-E-D-ET-GNR-E-FEM-ET-NUM-E-PLU.
ADJMAS  01==SUBA-E-ADJ-ET-GNR-E-MAS-OU-
ADJMAS  02  CAT-E-D-ET-GNR-E-MAS.
ADJPLU  01==SUBA-E-ADJ-ET-NUM-E-PLU-OU-
ADJPLU  02  CAT-E-D-ET-NUM-E-PLU.
ADV     01==SUBA-E-ADV-OU-SUBA-E-ADVN-OU-
ADV     02  SUBA-E-ADADJ-OU-SUBA-E-ADADV-OU-SUBA-E-ADCL.
ADVNEG  01==SUBA-E-ADV-ET-NEG-E-NGM-OU-
ADVNEG  02  SUBA-E-ADDEICT-ET-NEG-E-NGM-OU-
ADVNEG  03  SUBA-E-ADVN-ET-NEG-E-NGM-OU-
ADVNEG  04  SUBA-E-ADADJ-ET-NEG-E-NGM-OU-
ADVNEG  05  SUBA-E-ADADV-ET-NEG-E-NGM-OU-
ADVNEG  06  SUBA-E-ADCL-ET-NEG-E-NGM-OU-POTDRV-E-AM-ET-NEG-E-NGM.
AIENT   01==TEMPS-E-IPF-ET-NUM-E-PLU-ET-P-NE-1-ET-P-NE-2.
AIT     01==TEMPS-E-IPF-ET-NUM-E-SIN-ET-P-NE-1-ET-P-NE-2.
AVIEZ   01==TEMPS-E-IPF-ET-NUM-E-PLU-ET-P-E-2-OU-
AVIEZ   02  MODE-E-SUBJ-ET-TEMPS-E-PRES-ET-NUM-E-PLU-ET-P-E-2.
AVIONS  01==TEMPS-E-IPF-ET-NUM-E-PLU-ET-P-E-1-OU-
AVIONS  02  MODE-E-SUBJ-ET-TEMPS-E-PRES-ET-NUM-E-PLU-ET-P-E-1.
BILITE  01==POTDRV-E-VPAN-ET-NUM-E-SIN-OU-POTDRV-E-VPA-ET-CAT-E-N-ET-
BILITE  02  NUM-E-SIN.
BILITES 01==POTDRV-E-VPAN-ET-NUM-E-PLU-OU-POTDRV-E-VPA-ET-CAT-E-N-ET-
BILITES 02  NUM-E-PLU.
BLE     01==POTDRV-E-VPA-ET-NUM-E-SIN.
BLES    01==POTDRV-E-VPA-ET-NUM-E-PLU.
CARD    01==SUBA-E-CARD.
CDL     01==MODE-E-CDL.
CONJ    01==SUBS-E-CONJ.
CUEILL  01==TEMPS-E-PAS-OU-SUBV-E-INF-OU-SUBV-E-PPA.
DEICT   01==CAT-E-D.
DI      01==NUM-E-SIN-ET-TEMPS-E-PRES-ET-MODE-E-IND-OU-
DI      02  MODE-E-IMP-ET-NUM-E-SIN-OU-
DI      03  SUBV-E-PPA-OU-SUBV-E-INF-OU-MODE-E-CDL-OU-TEMPS-E-FUT-OU-
DI      04  SUBV-E-VB-ET-TEMPS-E-PAS.
DITES   01==TEMPS-E-PRES-ET-NUM-E-PLU-ET-MODE-E-IND-ET-P-E-2-OU-
DITES   02  NUM-E-PLU-ET-MODE-E-IMP-ET-P-E-2.
DUE     01==P-E-2.
DUEPLU  01==P-E-2-ET-NUM-E-PLU.
DUEPRE  01==P-E-2-ET-TEMPS-E-PRES-ET-NUM-E-SIN.
DUESIN  01==P-E-2-ET-NUM-E-SIN.
ES      01==P-E-2-ET-TEMPS-E-PRES-ET-MODE-E-IND-ET-NUM-E-SIN.
EST     01==P-E-3-ET-TEMPS-E-PRES-ET-MODE-E-IND-ET-NUM-E-SIN.
ETES    01==P-E-2-ET-TEMPS-E-PRES-ET-MODE-E-IND-ET-NUM-E-PLU.
FEM     01==GNR-E-FEM.
FEMPLU  01==GNR-E-FEM-ET-NUM-E-PLU.
FEMSIN  01==GNR-E-FEM-ET-NUM-E-SIN.
FUT     01==TEMPS-E-FUT-OU-MODE-E-CDL.
GRD     01==SUBV-E-PPR.
IMPARF  01==TEMPS-E-IPF.
INF     01==SUBV-E-INF.
INFUT   01==TEMPS-E-FUT-OU-SUBV-E-INF-OU-MODE-E-CDL.
LETTRE  01==TYPOG-NINC-DIGIT.
LEVE    01==TEMPS-E-PRES-ET-NUM-E-SIN-OU-MODE-E-IMP-ET-NUM-E-SIN-OU-
LEVE    02  TEMPS-E-PRES-ET-NUM-E-PLU-ET-P-E-3-OU-TEMPS-E-FUT-OU-MODE-E-CDL.
LUI     01==TPN-E-LEUR-ET-NUM-E-SIN-OU-TPN-E-EUX-ET-NUM-E-SIN-ET-
LUI     02  GNR-E-MAS.
MAS     01==GNR-E-MAS.
MASPLU  01==GNR-E-MAS-ET-NUM-E-PLU.
MASSIN  01==GNR-E-MAS-ET-NUM-E-SIN.
MEUR    01==TEMPS-E-PRES-ET-NUM-E-SIN-OU-TEMPS-E-PRES-ET-P-E-3-OU-
MEUR    02  MODE-E-IMP-ET-NUM-E-SIN.
MOL     01==NUM-E-SIN-ET-GNR-E-MAS-ET-PLADJ-E-AVANT.
MOUD    01==NUM-E-SIN-ET-TEMPS-E-PRES-ET-MODE-E-IND-OU-MODE-E-IMP-ET-
MOUD    02  NUM-E-SIN-OU-SUBV-E-INF-OU-MODE-E-CDL-OU-TEMPS-E-FUT.
NAJF    01==POTDRV-E-AN-ET-GNR-E-FEM-OU-POTDRV-E-VPAN-ET-GNR-E-FEM.
NAJFP   01==POTDRV-E-AN-ET-NUM-E-PLU-OU-POTDRV-E-VPAN-ET-NUM-E-PLU.
NAJM    01==POTDRV-E-AN-ET-GNR-E-MAS.
NAJMP   01==POTDRV-E-AN-ET-GNR-E-MAS-ET-NUM-E-PLU.
NOM     01==CAT-E-N.
NOMFEM  01==CAT-E-N-ET-GNR-E-FEM.
NOMMAS  01==CAT-E-N-ET-GNR-E-MAS.
NOMPLU  01==CAT-E-N-ET-NUM-E-PLU.
NVB     01==POTDRV-E-VN.
NVBDER  01==POTDRV-E-VN-ET-GNR-E-FEM-OU-
NVBDER  02  POTDRV-E-VAA.
NVBDERP 01==POTDRV-E-VN-ET-GNR-E-FEM-OU-
NVBDERP 02  POTDRV-E-VAA-OU-
NVBDERP 03  POTDRV-E-VPA-OU-POTDRV-E-VPAN.
NVBFEM  01==POTDRV-E-VN-ET-GNR-E-FEM.
NVBMAS  01==POTDRV-E-VN-ET-GNR-E-MAS.
NVBPLU  01==POTDRV-E-VN-ET-NUM-E-PLU.
OBJ     01==TPN-E-LES-OU-TPN-E-LEUR.
OBJD    01==TPN-E-LES.
OBJF    01==TPN-E-LES-ET-GNR-E-FEM-ET-NUM-E-SIN.
OBJP    01==TPN-E-LES-ET-NUM-E-PLU.
ORD     01==SUBA-E-ORD.
ORDC    01==SUBA-E-ORD-ET-TYPOG-INC-DIGIT.
ORDL    01==SUBA-E-ORD-ET-TYPOG-NINC-DIGIT.
PARLAT  01==TEMPS-E-PAS-ET-P-E-3-ET-NUM-E-SIN-ET-MODE-E-SUBJ.
PLU     01==NUM-E-PLU.
POT     01==POTDRV-E-VPA-OU-POTDRV-E-VPAN.
PREF    01==CAT-E-PREF.
PREP    01==SUBS-E-PREP.
PRON    01==CAT-E-R.
PRT     01==SUBV-E-PPA.
PRTM    01==SUBV-E-PPA-ET-GNR-E-MAS.
PRTMS   01==SUBV-E-PPA-ET-GNR-E-MAS-ET-NUM-E-SIN.
PSS     01==TEMPS-E-PAS-ET-SUBV-E-VB.
PSSPT   01==TEMPS-E-PAS-ET-SUBV-E-VB-OU-SUBV-E-PPA.
RAIENT  01==MODE-E-CDL-ET-P-E-3-ET-NUM-E-PLU.
RAIS    01==MODE-E-CDL-ET-P-NE-3-ET-NUM-E-SIN.
RELAT   01==POTDRV-E-NA-OU-POTDRV-E-VAA.
RIEZ    01==MODE-E-CDL-ET-P-E-2-ET-NUM-E-PLU.
RIONS   01==MODE-E-CDL-ET-P-E-1-ET-NUM-E-PLU.
SACH    01==MODE-E-SUBJ-ET-TEMPS-E-PRES-OU-MODE-E-IMP.
SAI     01==NUM-E-SIN-ET-TEMPS-E-PRES-ET-MODE-E-IND-OU-
SAI     02  MODE-E-IMP-ET-NUM-E-SIN.
SIN     01==NUM-E-SIN.
SOIS    01==NUM-E-SIN-ET-P-NE-3-ET-
SOIS    02  TEMPS-E-PRES-ET-MODE-E-SUBJ-OU-MODE-E-IMP-ET-NUM-E-SIN.
SOIT    01==MODE-E-SUBJ-ET-TEMPS-E-PRES-ET-NUM-E-SIN-ET-P-E-3.
SOMMES  01==TEMPS-E-PRES-ET-MODE-E-IND-ET-NUM-E-PLU-ET-P-E-1.
SONT    01==TEMPS-E-PRES-ET-MODE-E-IND-ET-NUM-E-PLU-ET-P-E-3.
SSE     01==TEMPS-E-PAS-ET-MODE-E-SUBJ-ET-P-E-1-ET-NUM-E-SIN.
SSENT   01==TEMPS-E-PAS-ET-MODE-E-SUBJ-ET-P-E-3-ET-NUM-E-PLU.
SSES    01==TEMPS-E-PAS-ET-MODE-E-SUBJ-ET-P-E-2-ET-NUM-E-SIN.
SSIEZ   01==TEMPS-E-PAS-ET-MODE-E-SUBJ-ET-P-E-2-ET-NUM-E-PLU.
SSIONS  01==TEMPS-E-PAS-ET-MODE-E-SUBJ-ET-P-E-1-ET-NUM-E-PLU.
SUBJ    01==MODE-E-SUBJ-ET-TEMPS-E-PRES.
SUBJ1P  01==NUM-E-PLU-ET-P-E-1-ET-
SUBJ1P  02  MODE-E-SUBJ-ET-TEMPS-E-PRES-OU-
SUBJ1P  03  MODE-E-IMP-ET-NUM-E-PLU-ET-P-E-1.
SUBJ2P  01==NUM-E-PLU-ET-P-E-2-ET-
SUBJ2P  02  MODE-E-SUBJ-ET-TEMPS-E-PRES-OU-
SUBJ2P  03  MODE-E-IMP-ET-NUM-E-PLU-ET-P-E-2.
SUBJ3   01==MODE-E-SUBJ-ET-TEMPS-E-PRES-ET-NUM-E-SIN-OU-
SUBJ3   02  MODE-E-SUBJ-ET-TEMPS-E-PRES-ET-P-E-3.
SUIS    01==TEMPS-E-PRES-ET-MODE-E-IND-ET-NUM-E-SIN-ET-P-E-1.
SUJ     01==TPN-E-ILS.
SUJM    01==TPN-E-ILS-ET-GNR-E-MAS.
TIEN    01==NUM-E-SIN-ET-TEMPS-E-PRES-ET-MODE-E-IND-OU-
TIEN    02  TEMPS-E-FUT-OU-MODE-E-CDL-OU-MODE-E-IMP-ET-NUM-E-SIN.
TIN3    01==TEMPS-E-PAS-ET-MODE-E-IND-ET-NUM-E-PLU-ET-P-NE-3-OU-
TIN3    02  TEMPS-E-PAS-ET-MODE-E-SUBJ-ET-NUM-E-SIN-ET-P-E-3.
TRE     01==P-E-3.
TREPLU  01==P-E-3-ET-NUM-E-PLU.
TRESIN  01==P-E-3-ET-NUM-E-SIN.
UNO     01==P-E-1.
UNOPLU  01==P-E-1-ET-NUM-E-PLU.
UNOSIN  01==P-E-1-ET-NUM-E-SIN.
VAINC   01==NUM-E-SIN-ET-TEMPS-E-PRES-ET-MODE-E-IND-OU-
VAINC   02  MODE-E-IMP-ET-NUM-E-SIN-OU-
VAINC   03  SUBV-E-PPA-OU-SUBV-E-INF-OU-MODE-E-CDL-OU-TEMPS-E-FUT.
VERB    01==SUBV-NE-SUBV0-OU-POTDRV-E-VPA-OU-POTDRV-E-VPAN.
VERBAGR 01==SUBV-NE-SUBV0-OU-POTDRV-E-VPA-OU-POTDRV-E-VPAN-OU-
VERBAGR 02  POTDRV-E-VAA.
VERBNP  01==SUBV-NE-SUBV0.
VERBREL 01==SUBV-NE-SUBV0-OU-POTDRV-E-VAA.
VEUILL  01==MODE-E-SUBJ-ET-TEMPS-E-PRES-ET-NUM-E-SIN-OU-
VEUILL  02  MODE-E-SUBJ-ET-TEMPS-E-PRES-ET-P-E-3-OU-MODE-E-IMP.
VOI     01==TEMPS-E-PRES-ET-NUM-E-SIN-OU-TEMPS-E-PRES-ET-P-E-3-OU-
VOI     02  MODE-E-IMP-ET-NUM-E-SIN-OU-
VOI     03  TEMPS-E-FUT-OU-MODE-E-CDL-OU-SUBV-E-INF.
